<?xml version="1.0" standalone="no"?>
<!DOCTYPE svg PUBLIC "-//W3C//DTD SVG 1.1//EN" "http://www.w3.org/Graphics/SVG/1.1/DTD/svg11.dtd" >
<svg>
<metadata>
Created by FontForge 20110222 at Fri May  2 04:41:53 2014
 By Orthosie Webhosting
Copyright (c) 1987, 1991, 1993, 2002 Adobe Systems Incorporated.  All Rights Reserved.
</metadata>
<defs>
<font id="FuturaStdBold" horiz-adv-x="686" >
  <font-face 
    font-family="FuturaStdBold"
    font-weight="700"
    font-stretch="normal"
    units-per-em="1000"
    panose-1="2 11 8 2 2 2 4 2 2 4"
    ascent="825"
    descent="-175"
    x-height="513"
    cap-height="754"
    bbox="-171 -264 1441 1040"
    underline-thickness="50"
    underline-position="-50"
    unicode-range="U+0020-FB02"
  />
<missing-glyph horiz-adv-x="500" 
d="M0 0v700h500v-700h-500zM250 395l170 255h-340zM280 350l170 -255v510zM80 50h340l-170 255zM50 605v-510l170 255z" />
    <glyph glyph-name="fi" unicode="fi" horiz-adv-x="679" 
d="M254 363v-363h-182v363h-64v150h64v65q0 64 9 102.5t43 77.5q70 82 179 82q43 0 78 -18v-157q-40 17 -64 17q-34 0 -48.5 -20.5t-14.5 -65.5v-83h127v-150h-127zM619 513v-513h-182v513h182zM528 812q42 0 72 -30t30 -72t-30 -72t-72 -30t-72 30t-30 72t30 72t72 30z" />
    <glyph glyph-name="fl" unicode="fl" horiz-adv-x="690" 
d="M630 830v-830h-182v830h182zM254 363v-363h-182v363h-64v150h64v65q0 64 9 102.5t43 77.5q70 82 179 82q43 0 78 -18v-157q-40 17 -64 17q-34 0 -48.5 -20.5t-14.5 -65.5v-83h127v-150h-127z" />
    <glyph glyph-name=".notdef" horiz-adv-x="500" 
d="M0 0v700h500v-700h-500zM250 395l170 255h-340zM280 350l170 -255v510zM80 50h340l-170 255zM50 605v-510l170 255z" />
    <glyph glyph-name=".null" horiz-adv-x="0" 
 />
    <glyph glyph-name="nonmarkingreturn" horiz-adv-x="333" 
 />
    <glyph glyph-name="space" unicode=" " horiz-adv-x="343" 
 />
    <glyph glyph-name="exclam" unicode="!" horiz-adv-x="384" 
d="M192 214q49 0 83 -34t34 -83q0 -48 -34 -82.5t-83 -34.5t-83 34.5t-34 82.5q0 49 34 83t83 34zM98 256v498h189v-498h-189z" />
    <glyph glyph-name="quotedbl" unicode="&#x22;" horiz-adv-x="500" 
d="M47 754h170l-27 -331h-116zM283 754h170l-27 -331h-116z" />
    <glyph glyph-name="numbersign" unicode="#" 
d="M265 726h106l-39 -203h101l39 203h105l-39 -203h80v-113h-98l-24 -124h94v-113h-118l-33 -173h-106l33 173h-101l-33 -173h-106l33 173h-91v113h113l24 124h-96v113h117zM311 410l-24 -124h102l26 124h-104z" />
    <glyph glyph-name="dollar" unicode="$" 
d="M68 87l82 151q38 -35 87 -59.5t94 -24.5q35 0 64.5 19.5t29.5 53.5q0 16 -8 28t-25.5 21.5t-33 15.5t-45 15t-45.5 15q-72 27 -114.5 70t-42.5 126q0 91 57.5 160t146.5 75v121h93v-121q108 -10 182 -58l-74 -145q-61 49 -128 49q-36 0 -60.5 -14t-24.5 -42q0 -16 9 -29
t28 -23t29.5 -14.5t31.5 -11.5q52 -17 83.5 -31.5t66 -39.5t51 -61.5t16.5 -86.5q0 -192 -210 -244v-125h-93v119q-63 0 -129 25q-80 31 -118 66z" />
    <glyph glyph-name="percent" unicode="%" horiz-adv-x="975" 
d="M225 764q88 0 147 -48.5t59 -134.5q0 -88 -58 -137t-148 -49t-148 49t-58 137q0 86 59 134.5t147 48.5zM225 664q-35 0 -60 -25t-25 -60t25 -59.5t60 -24.5t60 24.5t25 59.5t-25 60t-60 25zM750 359q88 0 147 -48.5t59 -134.5q0 -88 -58 -137t-148 -49t-148 49t-58 137
q0 86 59 134.5t147 48.5zM750 259q-35 0 -60 -25t-25 -60t25 -59.5t60 -24.5t60 24.5t25 59.5t-25 60t-60 25zM657 754h98l-438 -754h-98z" />
    <glyph glyph-name="ampersand" unicode="&#x26;" horiz-adv-x="848" 
d="M431 187l-119 128q-71 -44 -71 -90q0 -32 26 -50.5t59 -18.5q52 0 105 31zM393 479q70 39 70 92q0 29 -18.5 49.5t-47.5 20.5q-27 0 -45 -17.5t-18 -44.5q0 -17 12 -38.5t19 -29.5zM603 0l-65 70q-132 -90 -258 -90q-102 0 -172 58t-70 158q0 79 41.5 127t120.5 83l18 8
l-16 22q-1 1 -7.5 9.5t-7.5 11t-7 10.5t-7.5 11.5t-6 12t-6.5 13.5t-5 13.5t-4 15.5t-2 16t-1 18q0 94 69.5 150.5t164.5 56.5t165.5 -56t70.5 -149q0 -65 -36.5 -106t-103.5 -75l95 -100q64 57 99 107l111 -106l-95 -102l-9 -9l169 -178h-245z" />
    <glyph glyph-name="quotesingle" unicode="'" horiz-adv-x="250" 
d="M40 754h170l-27 -331h-116z" />
    <glyph glyph-name="parenleft" unicode="(" horiz-adv-x="352" 
d="M194 790l109 -62q-115 -185 -115 -454q0 -117 29.5 -242t85.5 -210l-109 -62q-73 96 -109 240.5t-36 285.5q0 131 37.5 269t107.5 235z" />
    <glyph glyph-name="parenright" unicode=")" horiz-adv-x="352" 
d="M49 728l109 62q70 -97 107.5 -235t37.5 -269q0 -141 -36 -285.5t-109 -240.5l-109 62q56 85 85.5 210t29.5 242q0 269 -115 454z" />
    <glyph glyph-name="asterisk" unicode="*" horiz-adv-x="483" 
d="M196 754h90l-5 -107l89 56l45 -76l-95 -50l94 -52l-45 -75l-88 57l4 -101h-90l6 100l-85 -54l-45 76l90 50l-93 51l46 76l87 -55z" />
    <glyph glyph-name="plus" unicode="+" 
d="M268 332v181h150v-181h181v-150h-181v-182h-150v182h-181v150h181z" />
    <glyph glyph-name="comma" unicode="," horiz-adv-x="343" 
d="M152 191h171l-184 -332h-117z" />
    <glyph glyph-name="hyphen" unicode="-" horiz-adv-x="392" 
d="M53 396h286v-150h-286v150z" />
    <glyph glyph-name="period" unicode="." horiz-adv-x="343" 
d="M172 214q49 0 83 -34t34 -83q0 -48 -34 -82.5t-83 -34.5t-83 34.5t-34 82.5q0 49 34 83t83 34z" />
    <glyph glyph-name="slash" unicode="/" horiz-adv-x="579" 
d="M409 830h143l-382 -923h-143z" />
    <glyph glyph-name="zero" unicode="0" 
d="M343 784q81 0 144 -35.5t100.5 -95t56.5 -130t19 -146.5q0 -60 -11.5 -117.5t-36.5 -110.5t-61.5 -92.5t-91 -63t-119.5 -23.5t-119.5 23.5t-91 63t-61.5 92.5t-36.5 110.5t-11.5 117.5q0 76 19 146.5t56.5 130t100.5 95t144 35.5zM343 611q-35 0 -61.5 -25.5
t-39.5 -64.5t-18.5 -75t-5.5 -68t5.5 -68.5t18.5 -76t39.5 -65t61.5 -25.5t61.5 25.5t39.5 65t18.5 76t5.5 68.5t-5.5 68t-18.5 75t-39.5 64.5t-61.5 25.5z" />
    <glyph glyph-name="one" unicode="1" 
d="M269 588h-108v166h304v-754h-196v588z" />
    <glyph glyph-name="two" unicode="2" 
d="M392 166h247v-166h-606l308 335q86 94 86 185q0 38 -24.5 68t-61.5 30q-38 0 -60 -26t-22 -66q0 -16 3 -32h-216q5 131 83.5 210.5t210.5 79.5q122 0 206.5 -74t84.5 -194q0 -76 -29.5 -130t-92.5 -111z" />
    <glyph glyph-name="three" unicode="3" 
d="M255 537h-182q11 113 88 182q73 65 192 65q105 0 173 -58t68 -161q0 -48 -20 -90.5t-59 -64.5q57 -15 90 -71.5t33 -118.5q0 -79 -42.5 -137t-108 -85.5t-142.5 -27.5q-141 0 -225 85q-36 37 -61.5 90t-24.5 100h200q0 -46 29.5 -76.5t75.5 -30.5t75.5 28t29.5 73
q0 42 -31 71.5t-73 29.5q-12 0 -34 -6v131h20q38 0 62 22.5t24 60.5q0 34 -22 55t-55 21q-37 0 -59 -24.5t-21 -62.5z" />
    <glyph glyph-name="four" unicode="4" 
d="M564 306h91v-150h-91v-156h-182v156h-366v125l291 473h257v-448zM382 306v290h-2l-176 -290h178z" />
    <glyph glyph-name="five" unicode="5" 
d="M563 588h-261l-13 -86l62 5q114 9 190.5 -71t76.5 -199q0 -124 -97 -204q-79 -63 -220 -63q-140 0 -246 68l29 185q97 -87 210 -87q48 0 84 31.5t36 79.5q0 63 -49.5 96t-115.5 33q-78 0 -144 -31l66 409h392v-166z" />
    <glyph glyph-name="six" unicode="6" 
d="M306 754h222l-214 -255l2 -2q52 23 105 23q107 0 174.5 -78.5t67.5 -186.5q0 -133 -94 -209t-230 -76q-133 0 -215 65q-46 38 -73.5 93.5t-27.5 113.5q0 142 121 300zM338 124q51 0 86 36.5t35 88.5q0 51 -35 87t-86 36t-87.5 -36t-36.5 -87q0 -52 36.5 -88.5t87.5 -36.5
z" />
    <glyph glyph-name="seven" unicode="7" 
d="M386 588h-315v166h619l-433 -754h-215z" />
    <glyph glyph-name="eight" unicode="8" 
d="M343 648q-34 0 -58.5 -25t-24.5 -60t24.5 -60t58.5 -25t58.5 25t24.5 60t-24.5 60t-58.5 25zM343 317q-37 0 -63.5 -27.5t-26.5 -66.5q0 -38 26.5 -65t63.5 -27t63.5 27t26.5 65q0 39 -26.5 66.5t-63.5 27.5zM343 784q105 0 181 -56.5t76 -158.5q0 -59 -33.5 -106.5
t-85.5 -64.5v-2q69 -23 109.5 -74.5t40.5 -123.5q0 -74 -46 -127.5t-109.5 -77t-132.5 -23.5t-132.5 23.5t-109.5 77t-46 127.5q0 72 40.5 123.5t109.5 74.5v2q-52 17 -85.5 64.5t-33.5 106.5q0 102 76 158.5t181 56.5z" />
    <glyph glyph-name="nine" unicode="9" 
d="M381 0h-223l215 254l-2 2q-52 -23 -106 -23q-107 0 -174.5 78.5t-67.5 187.5q0 133 94 209t230 76q135 0 215 -65q46 -37 73.5 -93t27.5 -115q0 -140 -121 -300zM348 629q-51 0 -86 -36t-35 -88t35 -88t86 -36q52 0 88.5 36t36.5 88t-36.5 88t-88.5 36z" />
    <glyph glyph-name="colon" unicode=":" horiz-adv-x="343" 
d="M172 214q49 0 83 -34t34 -83q0 -48 -34 -82.5t-83 -34.5t-83 34.5t-34 82.5q0 49 34 83t83 34zM172 551q49 0 83 -34t34 -83q0 -48 -34 -82.5t-83 -34.5t-83 34.5t-34 82.5q0 49 34 83t83 34z" />
    <glyph glyph-name="semicolon" unicode=";" horiz-adv-x="343" 
d="M138 191h171l-184 -332h-117zM218 551q49 0 83 -34t34 -83q0 -48 -34 -82.5t-83 -34.5t-83 34.5t-34 82.5q0 49 34 83t83 34z" />
    <glyph glyph-name="less" unicode="&#x3c;" 
d="M99 197v120l489 182v-150l-274 -91v-2l274 -91v-150z" />
    <glyph glyph-name="equal" unicode="=" 
d="M87 452h512v-150h-512v150zM87 212h512v-150h-512v150z" />
    <glyph glyph-name="greater" unicode="&#x3e;" 
d="M588 317v-120l-489 -182v150l274 91v2l-274 91v150z" />
    <glyph glyph-name="question" unicode="?" horiz-adv-x="595" 
d="M186 252v194q23 -5 42 -5q48 0 88.5 26.5t40.5 72.5q0 31 -21 53t-52 22q-33 0 -51.5 -21t-18.5 -55h-199q1 109 81.5 172t192.5 63q103 0 175 -62q39 -32 62.5 -78.5t23.5 -94.5q0 -81 -49.5 -135.5t-131.5 -80.5v-71h-183zM281 214q49 0 83 -34t34 -83q0 -48 -34 -82.5
t-83 -34.5t-83 34.5t-34 82.5q0 49 34 83t83 34z" />
    <glyph glyph-name="at" unicode="@" horiz-adv-x="740" 
d="M280 354q0 -39 20.5 -65.5t55.5 -26.5q42 0 65.5 33t28.5 77q5 43 -15 70t-57 27q-41 0 -69.5 -36t-28.5 -79zM592 570l-50 -260q-10 -51 -3 -61q5 -6 15 -5q29 3 61.5 57.5t36.5 116.5q7 122 -70.5 192t-197.5 70q-125 0 -205 -85.5t-80 -217.5q0 -136 85.5 -219.5
t216.5 -83.5q115 0 179 40l82 -66q-132 -68 -269 -68q-163 0 -275.5 113.5t-112.5 283.5q0 169 110.5 283t271.5 114q139 0 235 -87q112 -99 112 -234q0 -131 -62 -213q-69 -92 -154 -88q-21 1 -38.5 17.5t-23.5 40.5q-50 -58 -128 -58q-67 0 -117.5 55t-50.5 131
q0 96 57 168.5t147 72.5q80 0 123 -62l10 53h95z" />
    <glyph glyph-name="A" unicode="A" horiz-adv-x="781" 
d="M526 131h-270l-52 -131h-208l290 754h214l284 -754h-209zM473 281l-80 240h-2l-81 -240h163z" />
    <glyph glyph-name="B" unicode="B" horiz-adv-x="677" 
d="M260 312v-162h25h32.5t32.5 2t35.5 7t27 13.5t22 23t6.5 34.5q0 15 -3 27t-10.5 20t-13.5 14.5t-19.5 10t-20.5 6t-24.5 3.5t-23 1h-24.5h-22h-20zM366 0h-302v754h280q224 0 224 -196q0 -112 -83 -154v-2q154 -20 154 -192q0 -57 -23 -99t-62.5 -65.5t-86 -34.5
t-101.5 -11zM260 604v-146h22q48 0 77 15t29 58q0 25 -9.5 40.5t-28.5 22t-35 8.5t-41 2h-14z" />
    <glyph glyph-name="C" unicode="C" horiz-adv-x="660" 
d="M603 736v-235q-30 40 -75.5 61.5t-96.5 21.5q-89 0 -145 -60t-56 -149q0 -90 56.5 -147.5t147.5 -57.5q48 0 93 21.5t76 58.5v-235q-114 -35 -173 -35q-161 0 -283 111q-121 109 -121 285q0 162 111 276q56 57 132 89.5t155 32.5q87 0 179 -38z" />
    <glyph glyph-name="D" unicode="D" horiz-adv-x="752" 
d="M64 0v754h278q158 0 270.5 -109.5t112.5 -267.5t-112.5 -267.5t-270.5 -109.5h-278zM260 588v-422h44q94 0 155.5 53t61.5 158q0 99 -59 155t-156 56h-46z" />
    <glyph glyph-name="E" unicode="E" horiz-adv-x="550" 
d="M493 588h-233v-126h221v-166h-221v-130h233v-166h-429v754h429v-166z" />
    <glyph glyph-name="F" unicode="F" horiz-adv-x="542" 
d="M497 588h-237v-126h215v-166h-215v-296h-196v754h433v-166z" />
    <glyph glyph-name="G" unicode="G" horiz-adv-x="842" 
d="M427 421h389q-2 -98 -16.5 -166t-60.5 -132q-106 -148 -311 -148q-178 0 -290 110.5t-112 287.5q0 183 113 294.5t296 111.5q118 0 205 -53t135 -158l-186 -78q-21 56 -63 88t-100 32q-91 0 -143.5 -72t-52.5 -166t53.5 -165t145.5 -71q66 0 109 34t49 97h-160v154z" />
    <glyph glyph-name="H" unicode="H" horiz-adv-x="803" 
d="M260 463h283v291h196v-754h-196v309h-283v-309h-196v754h196v-291z" />
    <glyph glyph-name="I" unicode="I" horiz-adv-x="324" 
d="M260 754v-754h-196v754h196z" />
    <glyph glyph-name="J" unicode="J" horiz-adv-x="489" 
d="M233 754h196v-509q0 -123 -64 -194t-186 -71t-194 111l113 119q47 -64 79 -64q14 0 24.5 4.5t16 15.5t9 19t5 25t1.5 23.5v23.5v497z" />
    <glyph glyph-name="K" unicode="K" horiz-adv-x="758" 
d="M262 443l237 311h243l-300 -357l327 -397h-254l-253 327h-2v-327h-196v754h196v-311h2z" />
    <glyph glyph-name="L" unicode="L" horiz-adv-x="495" 
d="M260 754v-588h235v-166h-431v754h196z" />
    <glyph glyph-name="M" unicode="M" horiz-adv-x="983" 
d="M19 0l128 754h193l153 -403l162 403h195l114 -754h-196l-55 434h-2l-181 -434h-78l-173 434h-2l-63 -434h-195z" />
    <glyph glyph-name="N" unicode="N" horiz-adv-x="881" 
d="M64 0v754h196l359 -461h2v461h196v-754h-196l-359 462h-2v-462h-196z" />
    <glyph glyph-name="O" unicode="O" horiz-adv-x="887" 
d="M443 779q109 0 204 -48.5t154 -138.5t59 -201q0 -183 -117.5 -299.5t-299.5 -116.5t-299.5 116.5t-117.5 299.5q0 111 59 201t154 138.5t204 48.5zM443 589q-87 0 -150 -60t-63 -139q0 -96 62 -160.5t151 -64.5t151 64.5t62 160.5q0 79 -63 139t-150 60z" />
    <glyph glyph-name="P" unicode="P" horiz-adv-x="661" 
d="M64 0v754h300q127 0 200.5 -61.5t73.5 -186.5q0 -256 -267 -256h-111v-250h-196zM260 596v-188h33q28 0 42.5 0.5t37 5.5t33.5 14t19.5 27t8.5 45q0 28 -8 46.5t-19 28.5t-32.5 14.5t-37 5.5t-44.5 1h-33z" />
    <glyph glyph-name="Q" unicode="Q" horiz-adv-x="887" 
d="M568 318l53 -55q35 49 35 111q0 86 -62.5 150.5t-149.5 64.5t-150.5 -60t-63.5 -139q0 -96 62.5 -160.5t151.5 -64.5q31 0 60 10l-121 120zM890 -19l-180 -28l-60 71q-81 -49 -207 -49q-182 0 -299.5 116.5t-117.5 299.5q0 111 59 201t154 138.5t204 48.5
q179 0 298 -111.5t119 -292.5q0 -145 -97 -265z" />
    <glyph glyph-name="R" unicode="R" horiz-adv-x="680" 
d="M454 309l237 -309h-244l-185 290h-2v-290h-196v754h293q118 0 190 -58t72 -174q0 -81 -43.5 -140t-121.5 -73zM260 604v-188h19q136 0 136 94t-136 94h-19z" />
    <glyph glyph-name="S" unicode="S" horiz-adv-x="616" 
d="M556 712l-78 -152q-60 50 -130 50q-31 0 -57.5 -17t-26.5 -46q0 -20 16.5 -36t31 -22t39.5 -14l50 -15q88 -26 137 -73.5t49 -132.5q0 -137 -78 -203q-84 -71 -214 -71q-142 0 -265 86l84 158q89 -78 174 -78q38 0 66.5 19.5t28.5 56.5q0 52 -113 84q-4 1 -6 2
q-54 15 -85 28t-62 36.5t-44 59.5t-13 89q0 114 73 183.5t187 69.5q57 0 121.5 -17t114.5 -45z" />
    <glyph glyph-name="T" unicode="T" horiz-adv-x="533" 
d="M364 588v-588h-196v588h-162v166h520v-166h-162z" />
    <glyph glyph-name="U" unicode="U" horiz-adv-x="778" 
d="M522 754h196v-424q0 -92 -14.5 -154.5t-64.5 -111.5q-85 -84 -250 -84t-250 84q-50 49 -64.5 111.5t-14.5 154.5v424h196v-397q0 -36 1.5 -60t9 -54t21 -48t39.5 -30.5t62 -12.5t62 12.5t39.5 30.5t21 48t9 54t1.5 60v397z" />
    <glyph glyph-name="V" unicode="V" horiz-adv-x="761" 
d="M198 754l182 -458l183 458h213l-322 -754h-152l-317 754h213z" />
    <glyph glyph-name="W" unicode="W" horiz-adv-x="1117" 
d="M189 754l131 -487h2l158 487h156l148 -487h2l142 487h204l-241 -754h-200l-132 437h-2l-148 -437h-199l-225 754h204z" />
    <glyph glyph-name="X" unicode="X" horiz-adv-x="789" 
d="M287 403l-241 351h241l115 -195l115 195h241l-241 -351l279 -403h-236l-158 246l-173 -246h-237z" />
    <glyph glyph-name="Y" unicode="Y" horiz-adv-x="714" 
d="M259 362l-278 392h235l141 -205l141 205h235l-278 -392v-362h-196v362z" />
    <glyph glyph-name="Z" unicode="Z" horiz-adv-x="707" 
d="M341 166h316v-166h-646l357 588h-296v166h624z" />
    <glyph glyph-name="bracketleft" unicode="[" horiz-adv-x="350" 
d="M191 684v-818h107v-106h-246v1030h246v-106h-107z" />
    <glyph glyph-name="backslash" unicode="\" horiz-adv-x="579" 
d="M27 830h144l381 -830h-142z" />
    <glyph glyph-name="bracketright" unicode="]" horiz-adv-x="350" 
d="M159 -134v818h-107v106h246v-1030h-246v106h107z" />
    <glyph glyph-name="asciicircum" unicode="^" 
d="M217 340l-114 67l180 377h120l180 -377l-114 -67l-126 269z" />
    <glyph glyph-name="underscore" unicode="_" horiz-adv-x="500" 
d="M500 -125h-500v50h500v-50z" />
    <glyph glyph-name="grave" unicode="`" horiz-adv-x="402" 
d="M75 740l111 80l141 -172l-81 -59z" />
    <glyph glyph-name="a" unicode="a" horiz-adv-x="682" 
d="M328 372q-54 0 -85.5 -33.5t-31.5 -82.5q0 -50 31.5 -82.5t85.5 -32.5t85.5 32.5t31.5 82.5q0 49 -31.5 82.5t-85.5 33.5zM621 513v-513h-182v57h-2q-23 -37 -65 -55.5t-90 -18.5q-112 0 -185.5 80.5t-73.5 193.5t72.5 193t184.5 80q102 0 159 -67v50h182z" />
    <glyph glyph-name="b" unicode="b" horiz-adv-x="682" 
d="M54 0v830h182v-367q58 67 159 67q112 0 184.5 -80t72.5 -193t-73 -193.5t-186 -80.5q-48 0 -89.5 18.5t-65.5 55.5h-2v-57h-182zM347 372q-54 0 -85.5 -33.5t-31.5 -82.5q0 -50 31.5 -82.5t85.5 -32.5t85.5 32.5t31.5 82.5q0 49 -31.5 82.5t-85.5 33.5z" />
    <glyph glyph-name="c" unicode="c" horiz-adv-x="483" 
d="M430 500v-154q-49 36 -94 36q-53 0 -89 -36t-36 -89q0 -55 36 -90.5t92 -35.5q53 0 91 35v-154q-58 -29 -128 -29q-116 0 -197.5 76.5t-81.5 191.5q0 122 82.5 200.5t204.5 78.5q66 0 120 -30z" />
    <glyph glyph-name="d" unicode="d" horiz-adv-x="682" 
d="M446 0v57h-2q-23 -37 -65 -55.5t-90 -18.5q-112 0 -185.5 80.5t-73.5 193.5t72.5 193t184.5 80q102 0 159 -67v367h182v-830h-182zM335 372q-54 0 -85.5 -33.5t-31.5 -82.5q0 -50 31.5 -82.5t85.5 -32.5t85.5 32.5t31.5 82.5q0 49 -31.5 82.5t-85.5 33.5z" />
    <glyph glyph-name="e" unicode="e" horiz-adv-x="610" 
d="M207 331h211q-7 36 -36 58.5t-67 22.5q-41 0 -70.5 -21t-37.5 -60zM587 245v-19h-383q0 -114 114 -114q59 0 87 47h175q-20 -85 -97 -133q-70 -43 -164 -43q-132 0 -214.5 72t-82.5 201q0 127 78.5 200.5t205.5 73.5q133 0 207 -76.5t74 -208.5z" />
    <glyph glyph-name="f" unicode="f" horiz-adv-x="388" 
d="M260 363v-363h-182v363h-64v150h64v65q0 64 9 102.5t43 77.5q70 82 179 82q43 0 78 -18v-157q-40 17 -64 17q-34 0 -48.5 -20.5t-14.5 -65.5v-83h127v-150h-127z" />
    <glyph glyph-name="g" unicode="g" horiz-adv-x="677" 
d="M623 513v-463q0 -159 -75.5 -232.5t-221.5 -73.5q-63 0 -124.5 20t-110.5 66t-57 110h204q7 -26 34 -39q24 -12 52 -12q68 0 92.5 38t24.5 109v24q-70 -70 -163 -70q-111 0 -182 75t-71 187q0 115 74 196.5t189 81.5q101 0 151 -71h2v54h182zM330 376q-54 0 -85.5 -33.5
t-31.5 -82.5q0 -50 31.5 -82.5t85.5 -32.5t85.5 32.5t31.5 82.5q0 49 -31.5 82.5t-85.5 33.5z" />
    <glyph glyph-name="h" unicode="h" horiz-adv-x="661" 
d="M60 830h182v-382h2q62 82 164 82q95 0 144 -58t49 -158v-314h-182v263q0 56 -16.5 89t-65.5 33q-50 0 -72.5 -35t-22.5 -87v-263h-182v830z" />
    <glyph glyph-name="i" unicode="i" horiz-adv-x="302" 
d="M242 513v-513h-182v513h182zM151 812q42 0 72 -30t30 -72t-30 -72t-72 -30t-72 30t-30 72t30 72t72 30z" />
    <glyph glyph-name="j" unicode="j" horiz-adv-x="302" 
d="M242 513v-769h-182v769h182zM151 812q42 0 72 -30t30 -72t-30 -72t-72 -30t-72 30t-30 72t30 72t72 30z" />
    <glyph glyph-name="k" unicode="k" horiz-adv-x="688" 
d="M242 830v-502l189 185h249l-257 -237l273 -276h-255l-199 209v-209h-182v830h182z" />
    <glyph glyph-name="l" unicode="l" horiz-adv-x="302" 
d="M242 830v-830h-182v830h182z" />
    <glyph glyph-name="m" unicode="m" horiz-adv-x="989" 
d="M242 513v-64h2q61 81 162 81q122 0 175 -98q26 47 73 72.5t101 25.5q175 0 175 -203v-327h-182v245q0 25 -0.5 36t-4 35t-10.5 36t-22.5 22.5t-37.5 10.5q-24 0 -41 -9.5t-26 -22t-13.5 -33.5t-5.5 -36.5t-1 -38.5v-245h-182v245q0 20 -0.5 31t-2.5 31t-7 32t-13.5 25
t-23.5 19t-34 6t-34 -6t-23.5 -19t-13.5 -25t-7 -32t-2.5 -31t-0.5 -31v-245h-182v513h182z" />
    <glyph glyph-name="n" unicode="n" horiz-adv-x="661" 
d="M242 513v-66h2q56 83 164 83q99 0 146 -56.5t47 -156.5v-317h-182v250v15.5v18t-0.5 17t-2 18.5t-4.5 17t-7 16t-10.5 12.5t-14.5 11t-19 6.5t-24 3q-95 0 -95 -119v-266h-182v513h182z" />
    <glyph glyph-name="o" unicode="o" horiz-adv-x="662" 
d="M331 530q130 0 219.5 -74t89.5 -200t-89.5 -199.5t-219.5 -73.5q-129 0 -219 73.5t-90 199.5t89.5 200t219.5 74zM331 372q-54 0 -85.5 -33.5t-31.5 -82.5q0 -50 31.5 -82.5t85.5 -32.5t85.5 32.5t31.5 82.5q0 49 -31.5 82.5t-85.5 33.5z" />
    <glyph glyph-name="p" unicode="p" horiz-adv-x="682" 
d="M236 513v-58h2q24 37 66 56t89 19q112 0 185.5 -81t73.5 -194t-72.5 -192.5t-184.5 -79.5q-102 0 -159 66v-305h-182v769h182zM347 372q-54 0 -85.5 -33.5t-31.5 -82.5q0 -50 31.5 -82.5t85.5 -32.5t85.5 32.5t31.5 82.5q0 49 -31.5 82.5t-85.5 33.5z" />
    <glyph glyph-name="q" unicode="q" horiz-adv-x="682" 
d="M628 513v-769h-182v305q-56 -66 -159 -66q-112 0 -184.5 79.5t-72.5 192.5q0 112 73.5 193.5t185.5 81.5q48 0 90 -19t65 -56h2v58h182zM335 372q-54 0 -85.5 -33.5t-31.5 -82.5q0 -50 31.5 -82.5t85.5 -32.5t85.5 32.5t31.5 82.5q0 49 -31.5 82.5t-85.5 33.5z" />
    <glyph glyph-name="r" unicode="r" horiz-adv-x="453" 
d="M242 513v-84h2q51 91 166 91h35v-175q-30 17 -77 17q-71 0 -98.5 -40.5t-27.5 -114.5v-207h-182v513h182z" />
    <glyph glyph-name="s" unicode="s" horiz-adv-x="513" 
d="M460 497l-61 -116q-47 25 -98 25q-20 0 -38.5 -9t-18.5 -26q0 -7 3 -13t9 -10.5t12 -7.5t15.5 -5.5t15 -3.5t15 -2.5t12.5 -2.5q149 -30 149 -152q0 -94 -71.5 -142.5t-170.5 -48.5q-111 0 -207 59l66 127q30 -21 71 -36.5t73 -15.5q21 0 39 10t18 29q0 11 -5.5 19.5
t-18.5 14t-24.5 8.5t-32.5 7.5t-33 7.5q-52 14 -83 43.5t-31 91.5q0 60 34 102.5t83.5 61t108.5 18.5q96 0 169 -33z" />
    <glyph glyph-name="t" unicode="t" horiz-adv-x="360" 
d="M259 363v-363h-182v363h-59v150h59v154h182v-154h103v-150h-103z" />
    <glyph glyph-name="u" unicode="u" horiz-adv-x="659" 
d="M57 513h182v-274q0 -54 19.5 -82.5t71.5 -28.5t71.5 28.5t19.5 82.5v274h182v-309q0 -221 -273 -221t-273 221v309z" />
    <glyph glyph-name="v" unicode="v" horiz-adv-x="623" 
d="M189 513l123 -263l122 263h204l-268 -513h-116l-269 513h204z" />
    <glyph glyph-name="w" unicode="w" horiz-adv-x="996" 
d="M187 513l128 -278l129 278h108l129 -278l129 278h201l-268 -513h-118l-127 281l-127 -281h-118l-268 513h202z" />
    <glyph glyph-name="x" unicode="x" horiz-adv-x="712" 
d="M241 278l-208 235h231l92 -106l92 106h235l-212 -235l256 -278h-239l-132 152l-132 -152h-239z" />
    <glyph glyph-name="y" unicode="y" horiz-adv-x="654" 
d="M233 70l-248 443h210l137 -263l134 263h207l-411 -769h-204z" />
    <glyph glyph-name="z" unicode="z" horiz-adv-x="559" 
d="M312 151h216v-151h-520l241 362h-209v151h512z" />
    <glyph glyph-name="braceleft" unicode="{" horiz-adv-x="352" 
d="M36 227v104q46 0 60 18q10 12 10 35v253q0 72 39 112.5t74 40.5h97v-120h-25q-21 0 -32 -10t-12.5 -20t-1.5 -29v-225q0 -91 -96 -106v-2q14 -2 22.5 -3.5t24.5 -9t25 -18.5t16.5 -33.5t7.5 -52.5v-222q0 -15 1 -22.5t5 -17.5t14 -14.5t26 -4.5h25v-120h-97
q-35 0 -74 40.5t-39 110.5v253q0 11 -1.5 20.5t-5 16t-7 11t-9.5 7.5t-9.5 5t-10.5 2.5t-10 0.5h-9.5h-7.5z" />
    <glyph glyph-name="bar" unicode="|" horiz-adv-x="579" 
d="M365 786v-1000h-150v1000h150z" />
    <glyph glyph-name="braceright" unicode="}" horiz-adv-x="352" 
d="M316 331v-104h-7.5h-9.5t-10 -0.5t-10.5 -2.5t-9.5 -5t-9.5 -7.5t-7 -11t-5 -16t-1.5 -20.5v-253q0 -70 -39 -110.5t-74 -40.5h-97v120h25q16 0 26 4.5t14 14.5t5 17.5t1 22.5v222q0 30 7.5 52.5t16.5 33.5t25 18.5t24.5 9t22.5 3.5v2q-96 15 -96 106v225q0 19 -1.5 29
t-12.5 20t-32 10h-25v120h97q35 0 74 -40.5t39 -112.5v-253q0 -54 66 -53h4z" />
    <glyph glyph-name="asciitilde" unicode="~" 
d="M523 373l114 -97q-19 -32 -31.5 -51t-36.5 -47.5t-51 -43t-56 -14.5q-14 0 -27 2.5t-28.5 9.5t-22 10t-25 14t-20.5 12q-12 7 -39.5 25t-43 25.5t-29.5 7.5q-28 0 -65 -84l-113 96q8 10 33 45t41 54.5t44.5 38.5t57.5 19q55 0 128 -56q64 -50 108 -50q31 0 62 84z" />
    <glyph glyph-name="uni00A0" unicode="&#xa0;" horiz-adv-x="343" 
 />
    <glyph glyph-name="exclamdown" unicode="&#xa1;" horiz-adv-x="384" 
d="M192 532q49 0 83 -34t34 -83q0 -48 -34 -82.5t-83 -34.5t-83 34.5t-34 82.5q0 49 34 83t83 34zM98 255h189v-498h-189v498z" />
    <glyph glyph-name="cent" unicode="&#xa2;" 
d="M394 10v99q-105 4 -179 83.5t-74 184.5q0 112 70.5 187t182.5 86v93h93v-99l58 -17v-163q-40 38 -88 38q-54 0 -90 -34.5t-36 -87.5q0 -51 34.5 -87t85.5 -36q62 0 94 38v-163q-38 -14 -58 -16v-106h-93z" />
    <glyph glyph-name="sterling" unicode="&#xa3;" 
d="M478 300h-142q9 -25 9.5 -66t-9.5 -68l11 -4q95 -34 148 -34q23 0 37 13t14 36h122q-6 -88 -51 -138q-49 -55 -133 -55q-14 0 -27.5 1.5t-29.5 5t-25.5 6t-29 8t-26.5 7.5q-88 25 -127 25q-53 0 -63 -37h-130q13 70 59.5 123t112.5 54q26 55 -18 123h-161v76h108
q-36 58 -36 128q0 113 81 191q76 73 211 73q147 0 211.5 -67.5t66.5 -216.5h-194v35q0 38 -26.5 66.5t-64.5 28.5q-44 0 -69.5 -30.5t-25.5 -75.5q0 -72 41 -132h156v-76z" />
    <glyph glyph-name="currency" unicode="&#xa4;" 
d="M49 152l66 66q-50 66 -50 160q0 104 50 165l-66 67l62 63l67 -67q68 52 168 52q98 0 160 -52l67 67l62 -62l-62 -63q54 -73 54 -168q0 -98 -56 -161l66 -66l-60 -65l-67 66q-64 -54 -164 -54q-103 0 -169 55l-66 -66zM346 508q-56 0 -93.5 -38.5t-37.5 -94.5t37 -90.5
t94 -34.5t94 34.5t37 90.5t-37.5 94.5t-93.5 38.5z" />
    <glyph glyph-name="yen" unicode="&#xa5;" 
d="M633 446h-142l-56 -84h198v-76h-198v-286h-184v286h-200v76h199l-57 84h-142v76h92l-154 232h222l132 -205l132 205h222l-155 -232h91v-76z" />
    <glyph glyph-name="brokenbar" unicode="&#xa6;" horiz-adv-x="579" 
d="M365 161v-250h-150v250h150zM365 661v-250h-150v250h150z" />
    <glyph glyph-name="section" unicode="&#xa7;" 
d="M285 270l167 -83q26 21 26 54q0 14 -6 26t-19.5 21.5t-22.5 14.5t-25 13l-164 83q-31 -18 -31 -54q0 -8 2.5 -15t4.5 -12t8.5 -11t9.5 -9t12.5 -8.5t12 -7t13.5 -7t12 -5.5zM563 589h-157q-6 27 -25 43.5t-46 16.5q-23 0 -39.5 -14t-16.5 -37q0 -12 5 -23t10 -17.5
t18 -15t18.5 -12t22 -11t19.5 -9.5l111 -56q76 -37 111.5 -74t35.5 -108q0 -90 -84 -157q51 -45 51 -130q0 -69 -38.5 -119.5t-96.5 -73t-126 -22.5q-73 0 -135.5 24.5t-103.5 79t-38 129.5h183q-1 -38 29.5 -64.5t68.5 -26.5q32 0 54 18t22 49q0 10 -2 18.5t-9 16t-10.5 12
t-15 11t-14.5 8.5t-17.5 9t-15.5 7l-158 77q-117 58 -117 165q0 91 86 163q-21 20 -33 53t-12 64q0 90 67.5 140.5t160.5 50.5q46 0 86.5 -10.5t74 -32t54 -58t22.5 -84.5z" />
    <glyph glyph-name="dieresis" unicode="&#xa8;" horiz-adv-x="604" 
d="M174 800q40 0 69 -29t29 -69q0 -41 -28.5 -69.5t-69.5 -28.5t-70 28.5t-29 69.5t29 69.5t70 28.5zM430 800q40 0 69 -29t29 -69q0 -41 -28.5 -69.5t-69.5 -28.5t-70 28.5t-29 69.5t29 69.5t70 28.5z" />
    <glyph glyph-name="copyright" unicode="&#xa9;" horiz-adv-x="800" 
d="M400 -20q-165 0 -280.5 115.5t-115.5 280.5q0 166 115 282t281 116q165 0 280.5 -116t115.5 -282q0 -164 -115.5 -280t-280.5 -116zM400 74q129 0 215.5 85.5t86.5 216.5q0 132 -86.5 218t-215.5 86q-130 0 -216 -85.5t-86 -218.5q0 -131 86 -216.5t216 -85.5zM602 459
h-90q-6 35 -33 54t-65 19q-57 0 -90 -44t-33 -106q0 -60 35.5 -106.5t90.5 -46.5q37 0 65 21t30 56h90q-8 -70 -61 -112t-124 -42q-98 0 -159 65.5t-61 162.5q0 101 59 165t159 64q72 0 123.5 -40.5t63.5 -109.5z" />
    <glyph glyph-name="ordfeminine" unicode="&#xaa;" horiz-adv-x="409" 
d="M209 540q32 0 54 20.5t22 49.5t-22 49.5t-54 20.5t-54 -20.5t-22 -49.5t22 -49.5t54 -20.5zM281 456v34h-2q-29 -44 -100 -44q-73 0 -120.5 48t-47.5 116t47 116t120 48q66 0 103 -40v30h118v-308h-118z" />
    <glyph glyph-name="guillemotleft" unicode="&#xab;" horiz-adv-x="603" 
d="M421 320l129 -174l-103 -72l-172 246l172 246l100 -69zM172 320l129 -174l-103 -72l-172 246l172 246l100 -69z" />
    <glyph glyph-name="logicalnot" unicode="&#xac;" 
d="M449 141v161h-362v150h512v-311h-150z" />
    <glyph glyph-name="uni00AD" unicode="&#xad;" horiz-adv-x="392" 
d="M53 396h286v-150h-286v150z" />
    <glyph glyph-name="registered" unicode="&#xae;" horiz-adv-x="800" 
d="M400 -20q-165 0 -280.5 115.5t-115.5 280.5q0 166 115 282t281 116q165 0 280.5 -116t115.5 -282q0 -164 -115.5 -280t-280.5 -116zM400 74q129 0 215.5 85.5t86.5 216.5q0 132 -86.5 218t-215.5 86q-130 0 -216 -85.5t-86 -218.5q0 -131 86 -216.5t216 -85.5zM490 349
l100 -174h-100l-92 174h-64v-174h-92v412h200q81 0 120.5 -25t39.5 -101q0 -56 -28 -82t-84 -30zM334 411h110q38 0 55 12.5t17 49.5q0 15 -8 24t-24.5 12.5t-28 4.5t-32.5 1h-89v-104z" />
    <glyph glyph-name="macron" unicode="&#xaf;" horiz-adv-x="603" 
d="M75 752h452v-107h-452v107z" />
    <glyph glyph-name="degree" unicode="&#xb0;" horiz-adv-x="400" 
d="M350 623q0 -61 -44.5 -105t-106.5 -44q-63 0 -106 43.5t-43 105.5q-2 62 42 106.5t107 44.5q62 0 106.5 -44.5t44.5 -106.5zM265 624q0 26 -19.5 45.5t-46.5 19.5q-26 0 -45.5 -19.5t-18.5 -45.5q0 -27 19 -46t46 -19t46 19t19 46z" />
    <glyph glyph-name="plusminus" unicode="&#xb1;" 
d="M268 512v142h150v-142h181v-150h-181v-142h-150v142h-181v150h181zM87 150h512v-150h-512v150z" />
    <glyph glyph-name="twosuperior" unicode="&#xb2;" horiz-adv-x="412" 
d="M313 479l-76 -66h160v-99h-394l201 201q56 56 56 111q0 22 -16 40t-40 18q-25 0 -39.5 -15.5t-14.5 -39.5q0 -5 2 -19h-140q3 79 54 126.5t137 47.5q80 0 134.5 -44.5t54.5 -116.5q0 -46 -19 -78t-60 -66z" />
    <glyph glyph-name="threesuperior" unicode="&#xb3;" horiz-adv-x="412" 
d="M4 461h130q0 -27 19 -45t49 -18t49 16.5t19 43.5q0 25 -20 42.5t-47 17.5q-4 0 -7.5 -0.5t-8 -1.5t-7.5 -1v78h13q25 0 40.5 13.5t15.5 36.5q0 20 -14 32.5t-36 12.5q-23 0 -37.5 -15t-14.5 -37h-118q7 70 56 109t126 39q68 0 112.5 -35t44.5 -96q0 -66 -52 -93
q37 -8 58.5 -42.5t21.5 -71.5q0 -70 -56 -109.5t-134 -39.5q-92 0 -146 51q-24 22 -40.5 53.5t-15.5 59.5z" />
    <glyph glyph-name="acute" unicode="&#xb4;" horiz-adv-x="402" 
d="M327 740l-171 -151l-81 59l141 172z" />
    <glyph glyph-name="mu" unicode="&#xb5;" horiz-adv-x="659" 
d="M57 513h182v-274q0 -54 19.5 -82.5t71.5 -28.5t71.5 28.5t19.5 82.5v274h182v-309q0 -62 -22.5 -107.5t-59.5 -69t-74.5 -34t-76.5 -10.5q-80 0 -131 49v-288h-182v769z" />
    <glyph glyph-name="paragraph" unicode="&#xb6;" 
d="M263 754h377v-91h-66v-833h-101v832h-93v-832h-101v460q-97 9 -158 58t-73 157q-10 91 58.5 170t156.5 79z" />
    <glyph glyph-name="periodcentered" unicode="&#xb7;" horiz-adv-x="343" 
d="M172 373q49 0 83 -34t34 -83q0 -48 -34 -82.5t-83 -34.5t-83 34.5t-34 82.5q0 49 34 83t83 34z" />
    <glyph glyph-name="cedilla" unicode="&#xb8;" horiz-adv-x="380" 
d="M304 -94l-151 -143l-78 49l130 158z" />
    <glyph glyph-name="onesuperior" unicode="&#xb9;" horiz-adv-x="412" 
d="M163 667h-70v99h197v-452h-127v353z" />
    <glyph glyph-name="ordmasculine" unicode="&#xba;" horiz-adv-x="410" 
d="M205 774q84 0 142.5 -44t58.5 -120t-58.5 -120t-142.5 -44t-142 44t-58 120t58 120t142 44zM205 679q-31 0 -53 -20t-22 -49t21.5 -49t53.5 -20t54 20t22 49t-22.5 49t-53.5 20z" />
    <glyph glyph-name="guillemotright" unicode="&#xbb;" horiz-adv-x="603" 
d="M53 146l129 174l-126 177l100 69l172 -246l-172 -246zM302 146l129 174l-126 177l100 69l172 -246l-172 -246z" />
    <glyph glyph-name="onequarter" unicode="&#xbc;" horiz-adv-x="1029" 
d="M752 183v174h-2l-114 -174h116zM645 754h98l-438 -754h-98zM170 655h-70v99h197v-452h-127v353zM870 184h59v-90h-59v-94h-118v94h-238v75l189 283h167v-268z" />
    <glyph glyph-name="onehalf" unicode="&#xbd;" horiz-adv-x="1029" 
d="M170 655h-70v99h197v-452h-127v353zM845 165l-76 -66h160v-99h-394l201 201q56 56 56 111q0 22 -16 40t-40 18q-25 0 -39.5 -15.5t-14.5 -39.5q0 -5 2 -19h-140q3 80 54 126q50 48 137 48q80 0 134.5 -44.5t54.5 -116.5q0 -46 -19 -78t-60 -66zM617 754h98l-438 -754h-98
z" />
    <glyph glyph-name="threequarters" unicode="&#xbe;" horiz-adv-x="1029" 
d="M802 183v174h-2l-114 -174h116zM731 754h98l-438 -754h-98zM920 184h59v-90h-59v-94h-118v94h-238v75l189 283h167v-268zM226 563h13q25 0 40.5 13.5t15.5 36.5q0 20 -14 32.5t-36 12.5q-23 0 -37.5 -15t-14.5 -37h-118q7 70 57 109q48 39 125 39q68 0 112.5 -35
t44.5 -96q0 -66 -52 -93q37 -8 58.5 -42.5t21.5 -71.5q0 -70 -56 -109.5t-134 -39.5q-92 0 -146 51q-24 22 -40.5 53.5t-15.5 59.5h130q0 -28 19 -45q20 -18 49 -18q30 0 49 16.5t19 43.5q0 25 -20 42.5t-47 17.5q-4 0 -7.5 -0.5t-8 -1.5t-7.5 -1v78z" />
    <glyph glyph-name="questiondown" unicode="&#xbf;" horiz-adv-x="595" 
d="M409 258v-194q-23 5 -42 5q-48 0 -88.5 -26.5t-40.5 -72.5q0 -31 21 -53t52 -22q33 0 51.5 21t18.5 55h199q-1 -109 -81.5 -172t-192.5 -63q-103 0 -175 62q-39 32 -62.5 78.5t-23.5 94.5q0 81 49.5 135.5t131.5 80.5v71h183zM314 532q49 0 83 -34t34 -83
q0 -48 -34 -82.5t-83 -34.5t-83 34.5t-34 82.5q0 49 34 83t83 34z" />
    <glyph glyph-name="Agrave" unicode="&#xc0;" horiz-adv-x="781" 
d="M526 131h-270l-52 -131h-208l290 754h214l284 -754h-209zM473 281l-80 240h-2l-81 -240h163zM245 951l111 80l141 -172l-81 -59z" />
    <glyph glyph-name="Aacute" unicode="&#xc1;" horiz-adv-x="781" 
d="M526 131h-270l-52 -131h-208l290 754h214l284 -754h-209zM473 281l-80 240h-2l-81 -240h163zM537 951l-171 -151l-81 59l141 172z" />
    <glyph glyph-name="Acircumflex" unicode="&#xc2;" horiz-adv-x="781" 
d="M526 131h-270l-52 -131h-208l290 754h214l284 -754h-209zM473 281l-80 240h-2l-81 -240h163zM171 876l218 164l221 -164l-77 -84l-144 111l-144 -111z" />
    <glyph glyph-name="Atilde" unicode="&#xc3;" horiz-adv-x="781" 
d="M526 131h-270l-52 -131h-208l290 754h214l284 -754h-209zM473 281l-80 240h-2l-81 -240h163zM274 827h-82l-1 11q0 52 22 89q33 56 89 56q27 0 85.5 -17t77.5 -17q17 0 25 8.5t15 27.5h85q-5 -62 -38 -110t-92 -48q-26 0 -77.5 18.5t-74.5 18.5q-11 0 -18.5 -6.5
t-9.5 -11.5t-6 -19z" />
    <glyph glyph-name="Adieresis" unicode="&#xc4;" horiz-adv-x="781" 
d="M526 131h-270l-52 -131h-208l290 754h214l284 -754h-209zM473 281l-80 240h-2l-81 -240h163zM263 1011q41 0 69.5 -28.5t28.5 -69.5t-28.5 -69.5t-69.5 -28.5t-70 28.5t-29 69.5t29 69.5t70 28.5zM519 1011q41 0 69.5 -28.5t28.5 -69.5t-28.5 -69.5t-69.5 -28.5t-70 28.5
t-29 69.5t29 69.5t70 28.5z" />
    <glyph glyph-name="Aring" unicode="&#xc5;" horiz-adv-x="781" 
d="M526 131h-270l-52 -131h-208l290 754h214l284 -754h-209zM473 281l-80 240h-2l-81 -240h163zM389 1011q65 0 110 -27.5t45 -87.5q0 -59 -44.5 -87t-107.5 -28q-64 0 -109.5 27t-45.5 87t44 88t108 28zM391 939q-24 0 -41.5 -10.5t-17.5 -32.5t17.5 -32.5t41.5 -10.5
q23 0 40.5 10.5t17.5 32.5t-17.5 32.5t-40.5 10.5z" />
    <glyph glyph-name="AE" unicode="&#xc6;" horiz-adv-x="1026" 
d="M470 281l-81 224l-85 -224h166zM572 0l-49 131h-273l-47 -131h-207l291 754h462l61 -166h-248l46 -126h247l63 -166h-249l49 -130h248l60 -166h-454z" />
    <glyph glyph-name="Ccedilla" unicode="&#xc7;" horiz-adv-x="660" 
d="M603 736v-235q-30 40 -75.5 61.5t-96.5 21.5q-89 0 -145 -60t-56 -149q0 -90 56.5 -147.5t147.5 -57.5q48 0 93 21.5t76 58.5v-235q-114 -35 -173 -35q-161 0 -283 111q-121 109 -121 285q0 162 111 276q56 57 132 89.5t155 32.5q87 0 179 -38zM469 -94l-151 -143l-78 49
l130 158z" />
    <glyph glyph-name="Egrave" unicode="&#xc8;" horiz-adv-x="550" 
d="M493 588h-233v-126h221v-166h-221v-130h233v-166h-429v754h429v-166zM149 951l111 80l141 -172l-81 -59z" />
    <glyph glyph-name="Eacute" unicode="&#xc9;" horiz-adv-x="550" 
d="M493 588h-233v-126h221v-166h-221v-130h233v-166h-429v754h429v-166zM401 951l-171 -151l-81 59l141 172z" />
    <glyph glyph-name="Ecircumflex" unicode="&#xca;" horiz-adv-x="550" 
d="M493 588h-233v-126h221v-166h-221v-130h233v-166h-429v754h429v-166zM55 876l218 164l221 -164l-77 -84l-144 111l-144 -111z" />
    <glyph glyph-name="Edieresis" unicode="&#xcb;" horiz-adv-x="550" 
d="M493 588h-233v-126h221v-166h-221v-130h233v-166h-429v754h429v-166zM147 1011q41 0 69.5 -28.5t28.5 -69.5t-28.5 -69.5t-69.5 -28.5t-70 28.5t-29 69.5t29 69.5t70 28.5zM403 1011q41 0 69.5 -28.5t28.5 -69.5t-28.5 -69.5t-69.5 -28.5t-70 28.5t-29 69.5t29 69.5
t70 28.5z" />
    <glyph glyph-name="Igrave" unicode="&#xcc;" horiz-adv-x="324" 
d="M260 754v-754h-196v754h196zM21 951l111 80l141 -172l-81 -59z" />
    <glyph glyph-name="Iacute" unicode="&#xcd;" horiz-adv-x="324" 
d="M260 754v-754h-196v754h196zM303 951l-171 -151l-81 59l141 172z" />
    <glyph glyph-name="Icircumflex" unicode="&#xce;" horiz-adv-x="324" 
d="M260 754v-754h-196v754h196zM-43 876l218 164l221 -164l-77 -84l-144 111l-144 -111z" />
    <glyph glyph-name="Idieresis" unicode="&#xcf;" horiz-adv-x="324" 
d="M260 754v-754h-196v754h196zM34 1011q40 0 69 -28.5t29 -69.5t-28.5 -69.5t-69.5 -28.5t-70 28.5t-29 69.5t29 69.5t70 28.5zM290 1011q40 0 69 -28.5t29 -69.5t-28.5 -69.5t-69.5 -28.5t-70 28.5t-29 69.5t29 69.5t70 28.5z" />
    <glyph glyph-name="Eth" unicode="&#xd0;" horiz-adv-x="752" 
d="M260 588v-125h110v-154h-110v-143h44q94 0 155.5 53t61.5 158q0 99 -59 155t-156 56h-46zM64 0v309h-84v154h84v291h254q178 0 292.5 -106t114.5 -271q0 -164 -116 -270.5t-289 -106.5h-256z" />
    <glyph glyph-name="Ntilde" unicode="&#xd1;" horiz-adv-x="881" 
d="M64 0v754h196l359 -461h2v461h196v-754h-196l-359 462h-2v-462h-196zM324 827h-82l-1 11q0 52 22 89q33 56 89 56q27 0 85.5 -17t77.5 -17q17 0 25 8.5t15 27.5h85q-5 -62 -38 -110t-92 -48q-26 0 -77.5 18.5t-74.5 18.5q-11 0 -18.5 -6.5t-9.5 -11.5t-6 -19z" />
    <glyph glyph-name="Ograve" unicode="&#xd2;" horiz-adv-x="887" 
d="M443 779q109 0 204 -48.5t154 -138.5t59 -201q0 -183 -117.5 -299.5t-299.5 -116.5t-299.5 116.5t-117.5 299.5q0 111 59 201t154 138.5t204 48.5zM443 589q-87 0 -150 -60t-63 -139q0 -96 62 -160.5t151 -64.5t151 64.5t62 160.5q0 79 -63 139t-150 60zM298 951l111 80
l141 -172l-81 -59z" />
    <glyph glyph-name="Oacute" unicode="&#xd3;" horiz-adv-x="887" 
d="M443 779q109 0 204 -48.5t154 -138.5t59 -201q0 -183 -117.5 -299.5t-299.5 -116.5t-299.5 116.5t-117.5 299.5q0 111 59 201t154 138.5t204 48.5zM443 589q-87 0 -150 -60t-63 -139q0 -96 62 -160.5t151 -64.5t151 64.5t62 160.5q0 79 -63 139t-150 60zM590 951
l-171 -151l-81 59l141 172z" />
    <glyph glyph-name="Ocircumflex" unicode="&#xd4;" horiz-adv-x="887" 
d="M443 779q109 0 204 -48.5t154 -138.5t59 -201q0 -183 -117.5 -299.5t-299.5 -116.5t-299.5 116.5t-117.5 299.5q0 111 59 201t154 138.5t204 48.5zM443 589q-87 0 -150 -60t-63 -139q0 -96 62 -160.5t151 -64.5t151 64.5t62 160.5q0 79 -63 139t-150 60zM224 876l218 164
l221 -164l-77 -84l-144 111l-144 -111z" />
    <glyph glyph-name="Otilde" unicode="&#xd5;" horiz-adv-x="887" 
d="M443 779q109 0 204 -48.5t154 -138.5t59 -201q0 -183 -117.5 -299.5t-299.5 -116.5t-299.5 116.5t-117.5 299.5q0 111 59 201t154 138.5t204 48.5zM443 589q-87 0 -150 -60t-63 -139q0 -96 62 -160.5t151 -64.5t151 64.5t62 160.5q0 79 -63 139t-150 60zM327 827h-82
l-1 11q0 52 22 89q33 56 89 56q27 0 85.5 -17t77.5 -17q17 0 25 8.5t15 27.5h85q-5 -62 -38 -110t-92 -48q-26 0 -77.5 18.5t-74.5 18.5q-11 0 -18.5 -6.5t-9.5 -11.5t-6 -19z" />
    <glyph glyph-name="Odieresis" unicode="&#xd6;" horiz-adv-x="887" 
d="M443 779q109 0 204 -48.5t154 -138.5t59 -201q0 -183 -117.5 -299.5t-299.5 -116.5t-299.5 116.5t-117.5 299.5q0 111 59 201t154 138.5t204 48.5zM443 589q-87 0 -150 -60t-63 -139q0 -96 62 -160.5t151 -64.5t151 64.5t62 160.5q0 79 -63 139t-150 60zM316 1011
q40 0 69 -28.5t29 -69.5t-28.5 -69.5t-69.5 -28.5t-70 28.5t-29 69.5t29 69.5t70 28.5zM572 1011q40 0 69 -28.5t29 -69.5t-28.5 -69.5t-69.5 -28.5t-70 28.5t-29 69.5t29 69.5t70 28.5z" />
    <glyph glyph-name="multiply" unicode="&#xd7;" 
d="M238 256l-151 151l106 106l150 -152l149 152l106 -106l-149 -151l150 -150l-106 -106l-150 150l-150 -150l-106 106z" />
    <glyph glyph-name="Oslash" unicode="&#xd8;" horiz-adv-x="887" 
d="M260 275l290 285q-50 29 -107 29q-87 0 -150 -60t-63 -139q0 -66 30 -115zM630 481l-293 -287q47 -29 106 -29q89 0 151 64.5t62 160.5q0 50 -26 91zM21 40l90 89q-85 110 -85 262q0 111 59 201t154 138.5t204 48.5q138 0 250 -78l95 93l78 -80l-90 -89q84 -100 84 -234
q0 -183 -117.5 -299.5t-299.5 -116.5q-145 0 -251 77l-93 -92z" />
    <glyph glyph-name="Ugrave" unicode="&#xd9;" horiz-adv-x="778" 
d="M522 754h196v-424q0 -92 -14.5 -154.5t-64.5 -111.5q-85 -84 -250 -84t-250 84q-50 49 -64.5 111.5t-14.5 154.5v424h196v-397q0 -36 1.5 -60t9 -54t21 -48t39.5 -30.5t62 -12.5t62 12.5t39.5 30.5t21 48t9 54t1.5 60v397zM243 951l111 80l141 -172l-81 -59z" />
    <glyph glyph-name="Uacute" unicode="&#xda;" horiz-adv-x="778" 
d="M522 754h196v-424q0 -92 -14.5 -154.5t-64.5 -111.5q-85 -84 -250 -84t-250 84q-50 49 -64.5 111.5t-14.5 154.5v424h196v-397q0 -36 1.5 -60t9 -54t21 -48t39.5 -30.5t62 -12.5t62 12.5t39.5 30.5t21 48t9 54t1.5 60v397zM535 951l-171 -151l-81 59l141 172z" />
    <glyph glyph-name="Ucircumflex" unicode="&#xdb;" horiz-adv-x="778" 
d="M522 754h196v-424q0 -92 -14.5 -154.5t-64.5 -111.5q-85 -84 -250 -84t-250 84q-50 49 -64.5 111.5t-14.5 154.5v424h196v-397q0 -36 1.5 -60t9 -54t21 -48t39.5 -30.5t62 -12.5t62 12.5t39.5 30.5t21 48t9 54t1.5 60v397zM169 876l218 164l221 -164l-77 -84l-144 111
l-144 -111z" />
    <glyph glyph-name="Udieresis" unicode="&#xdc;" horiz-adv-x="778" 
d="M522 754h196v-424q0 -92 -14.5 -154.5t-64.5 -111.5q-85 -84 -250 -84t-250 84q-50 49 -64.5 111.5t-14.5 154.5v424h196v-397q0 -36 1.5 -60t9 -54t21 -48t39.5 -30.5t62 -12.5t62 12.5t39.5 30.5t21 48t9 54t1.5 60v397zM261 1011q41 0 69.5 -28.5t28.5 -69.5
t-28.5 -69.5t-69.5 -28.5t-70 28.5t-29 69.5t29 69.5t70 28.5zM517 1011q41 0 69.5 -28.5t28.5 -69.5t-28.5 -69.5t-69.5 -28.5t-70 28.5t-29 69.5t29 69.5t70 28.5z" />
    <glyph glyph-name="Yacute" unicode="&#xdd;" horiz-adv-x="714" 
d="M259 362l-278 392h235l141 -205l141 205h235l-278 -392v-362h-196v362zM523 951l-171 -151l-81 59l141 172z" />
    <glyph glyph-name="Thorn" unicode="&#xde;" horiz-adv-x="661" 
d="M64 0v754h196v-120h104q127 0 200.5 -61.5t73.5 -186.5q0 -256 -267 -256h-111v-130h-196zM260 476v-188h33q28 0 42.5 0.5t37 5.5t33.5 14t19.5 27t8.5 45q0 28 -8 46.5t-19 28.5t-32.5 14.5t-37 5.5t-44.5 1h-33z" />
    <glyph glyph-name="germandbls" unicode="&#xdf;" horiz-adv-x="651" 
d="M60 442v147q0 130 62 185q71 66 198 66q107 0 178 -58t71 -163q0 -51 -22 -87t-67 -70q77 -31 113 -79t36 -134q0 -56 -20.5 -111.5t-59.5 -88.5q-75 -66 -215 -66h-39v155q58 -2 96.5 31t38.5 90q0 56 -39.5 91t-95.5 31v145q45 -2 72 18t27 63q0 35 -20.5 55.5
t-55.5 20.5q-26 0 -42.5 -9t-23 -28t-8.5 -35t-2 -42v-569h-182v297h-52v145h52z" />
    <glyph glyph-name="agrave" unicode="&#xe0;" horiz-adv-x="682" 
d="M328 372q-54 0 -85.5 -33.5t-31.5 -82.5q0 -50 31.5 -82.5t85.5 -32.5t85.5 32.5t31.5 82.5q0 49 -31.5 82.5t-85.5 33.5zM621 513v-513h-182v57h-2q-23 -37 -65 -55.5t-90 -18.5q-112 0 -185.5 80.5t-73.5 193.5t72.5 193t184.5 80q102 0 159 -67v50h182zM215 740
l111 80l141 -172l-81 -59z" />
    <glyph glyph-name="aacute" unicode="&#xe1;" horiz-adv-x="682" 
d="M328 372q-54 0 -85.5 -33.5t-31.5 -82.5q0 -50 31.5 -82.5t85.5 -32.5t85.5 32.5t31.5 82.5q0 49 -31.5 82.5t-85.5 33.5zM621 513v-513h-182v57h-2q-23 -37 -65 -55.5t-90 -18.5q-112 0 -185.5 80.5t-73.5 193.5t72.5 193t184.5 80q102 0 159 -67v50h182zM487 740
l-171 -151l-81 59l141 172z" />
    <glyph glyph-name="acircumflex" unicode="&#xe2;" horiz-adv-x="682" 
d="M328 372q-54 0 -85.5 -33.5t-31.5 -82.5q0 -50 31.5 -82.5t85.5 -32.5t85.5 32.5t31.5 82.5q0 49 -31.5 82.5t-85.5 33.5zM621 513v-513h-182v57h-2q-23 -37 -65 -55.5t-90 -18.5q-112 0 -185.5 80.5t-73.5 193.5t72.5 193t184.5 80q102 0 159 -67v50h182zM121 665
l218 164l221 -164l-77 -84l-144 111l-144 -111z" />
    <glyph glyph-name="atilde" unicode="&#xe3;" horiz-adv-x="682" 
d="M328 372q-54 0 -85.5 -33.5t-31.5 -82.5q0 -50 31.5 -82.5t85.5 -32.5t85.5 32.5t31.5 82.5q0 49 -31.5 82.5t-85.5 33.5zM621 513v-513h-182v57h-2q-23 -37 -65 -55.5t-90 -18.5q-112 0 -185.5 80.5t-73.5 193.5t72.5 193t184.5 80q102 0 159 -67v50h182zM225 616h-82
l-1 11q0 52 22 89q33 56 89 56q27 0 85.5 -17t77.5 -17q17 0 25 8.5t15 27.5h85q-5 -62 -38 -110t-92 -48q-26 0 -77.5 18.5t-74.5 18.5q-11 0 -18.5 -6.5t-9.5 -11.5t-6 -19z" />
    <glyph glyph-name="adieresis" unicode="&#xe4;" horiz-adv-x="682" 
d="M328 372q-54 0 -85.5 -33.5t-31.5 -82.5q0 -50 31.5 -82.5t85.5 -32.5t85.5 32.5t31.5 82.5q0 49 -31.5 82.5t-85.5 33.5zM621 513v-513h-182v57h-2q-23 -37 -65 -55.5t-90 -18.5q-112 0 -185.5 80.5t-73.5 193.5t72.5 193t184.5 80q102 0 159 -67v50h182zM213 800
q41 0 69.5 -29t28.5 -69q0 -41 -28.5 -69.5t-69.5 -28.5t-70 28.5t-29 69.5t29 69.5t70 28.5zM469 800q41 0 69.5 -29t28.5 -69q0 -41 -28.5 -69.5t-69.5 -28.5t-70 28.5t-29 69.5t29 69.5t70 28.5z" />
    <glyph glyph-name="aring" unicode="&#xe5;" horiz-adv-x="682" 
d="M328 372q-54 0 -85.5 -33.5t-31.5 -82.5q0 -50 31.5 -82.5t85.5 -32.5t85.5 32.5t31.5 82.5q0 49 -31.5 82.5t-85.5 33.5zM621 513v-513h-182v57h-2q-23 -37 -65 -55.5t-90 -18.5q-112 0 -185.5 80.5t-73.5 193.5t72.5 193t184.5 80q102 0 159 -67v50h182zM340 815
q65 0 110 -27.5t45 -87.5q0 -59 -44.5 -87t-107.5 -28q-64 0 -109.5 27t-45.5 87t44 88t108 28zM342 743q-24 0 -41.5 -10.5t-17.5 -32.5t17.5 -32.5t41.5 -10.5q23 0 40.5 10.5t17.5 32.5t-17.5 32.5t-40.5 10.5z" />
    <glyph glyph-name="ae" unicode="&#xe6;" horiz-adv-x="940" 
d="M541 331h211q-7 36 -36 58.5t-67 22.5q-41 0 -70.5 -21t-37.5 -60zM274 218q-29 0 -52.5 -14t-23.5 -41q0 -28 25.5 -41.5t56.5 -13.5q30 0 60.5 13.5t30.5 40.5q0 30 -31 43t-66 13zM918 226h-383q0 -114 114 -114q59 0 87 47h175q-20 -85 -97 -133q-70 -43 -164 -43
q-68 0 -125.5 24t-80.5 77q-37 -47 -92.5 -74t-115.5 -27q-52 0 -99.5 17t-81.5 56t-34 92q0 86 61 128.5t150 42.5q72 0 135 -26v15q0 90 -122 90q-55 0 -143 -28v136q89 24 149 24q146 0 193 -91q29 44 82 67.5t111 23.5q133 0 207 -76.5t74 -208.5v-19z" />
    <glyph glyph-name="ccedilla" unicode="&#xe7;" horiz-adv-x="483" 
d="M430 500v-154q-49 36 -94 36q-53 0 -89 -36t-36 -89q0 -55 36 -90.5t92 -35.5q53 0 91 35v-154q-58 -29 -128 -29q-116 0 -197.5 76.5t-81.5 191.5q0 122 82.5 200.5t204.5 78.5q66 0 120 -30zM356 -94l-151 -143l-78 49l130 158z" />
    <glyph glyph-name="egrave" unicode="&#xe8;" horiz-adv-x="610" 
d="M207 331h211q-7 36 -36 58.5t-67 22.5q-41 0 -70.5 -21t-37.5 -60zM587 245v-19h-383q0 -114 114 -114q59 0 87 47h175q-20 -85 -97 -133q-70 -43 -164 -43q-132 0 -214.5 72t-82.5 201q0 127 78.5 200.5t205.5 73.5q133 0 207 -76.5t74 -208.5zM154 740l111 80l141 -172
l-81 -59z" />
    <glyph glyph-name="eacute" unicode="&#xe9;" horiz-adv-x="610" 
d="M207 331h211q-7 36 -36 58.5t-67 22.5q-41 0 -70.5 -21t-37.5 -60zM587 245v-19h-383q0 -114 114 -114q59 0 87 47h175q-20 -85 -97 -133q-70 -43 -164 -43q-132 0 -214.5 72t-82.5 201q0 127 78.5 200.5t205.5 73.5q133 0 207 -76.5t74 -208.5zM456 740l-171 -151
l-81 59l141 172z" />
    <glyph glyph-name="ecircumflex" unicode="&#xea;" horiz-adv-x="610" 
d="M207 331h211q-7 36 -36 58.5t-67 22.5q-41 0 -70.5 -21t-37.5 -60zM587 245v-19h-383q0 -114 114 -114q59 0 87 47h175q-20 -85 -97 -133q-70 -43 -164 -43q-132 0 -214.5 72t-82.5 201q0 127 78.5 200.5t205.5 73.5q133 0 207 -76.5t74 -208.5zM85 665l218 164l221 -164
l-77 -84l-144 111l-144 -111z" />
    <glyph glyph-name="edieresis" unicode="&#xeb;" horiz-adv-x="610" 
d="M207 331h211q-7 36 -36 58.5t-67 22.5q-41 0 -70.5 -21t-37.5 -60zM587 245v-19h-383q0 -114 114 -114q59 0 87 47h175q-20 -85 -97 -133q-70 -43 -164 -43q-132 0 -214.5 72t-82.5 201q0 127 78.5 200.5t205.5 73.5q133 0 207 -76.5t74 -208.5zM177 800q41 0 69.5 -29
t28.5 -69q0 -41 -28.5 -69.5t-69.5 -28.5t-70 28.5t-29 69.5t29 69.5t70 28.5zM433 800q41 0 69.5 -29t28.5 -69q0 -41 -28.5 -69.5t-69.5 -28.5t-70 28.5t-29 69.5t29 69.5t70 28.5z" />
    <glyph glyph-name="igrave" unicode="&#xec;" horiz-adv-x="302" 
d="M242 513v-513h-182v513h182zM10 740l111 80l141 -172l-81 -59z" />
    <glyph glyph-name="iacute" unicode="&#xed;" horiz-adv-x="302" 
d="M242 513v-513h-182v513h182zM292 740l-171 -151l-81 59l141 172z" />
    <glyph glyph-name="icircumflex" unicode="&#xee;" horiz-adv-x="302" 
d="M242 513v-513h-182v513h182zM-69 665l218 164l221 -164l-77 -84l-144 111l-144 -111z" />
    <glyph glyph-name="idieresis" unicode="&#xef;" horiz-adv-x="302" 
d="M242 513v-513h-182v513h182zM23 800q41 0 69.5 -29t28.5 -69q0 -41 -28.5 -69.5t-69.5 -28.5t-70 28.5t-29 69.5t29 69.5t70 28.5zM279 800q41 0 69.5 -29t28.5 -69q0 -41 -28.5 -69.5t-69.5 -28.5t-70 28.5t-29 69.5t29 69.5t70 28.5z" />
    <glyph glyph-name="eth" unicode="&#xf0;" horiz-adv-x="662" 
d="M41 744l106 104q109 -51 158 -83l127 67l65 -73l-104 -55q46 -39 75.5 -65.5t65.5 -68t56.5 -79t35 -88.5t14.5 -106q0 -80 -26.5 -142t-71.5 -98.5t-100 -55t-117 -18.5q-50 0 -101.5 16t-97.5 47.5t-75 86t-29 122.5q0 118 83 190.5t190 72.5q25 0 59 -6
q-51 63 -113 112l-130 -69l-66 71l109 58q-57 36 -113 60zM331 372q-54 0 -85.5 -33.5t-31.5 -82.5q0 -50 31.5 -82.5t85.5 -32.5t85.5 32.5t31.5 82.5q0 49 -31.5 82.5t-85.5 33.5z" />
    <glyph glyph-name="ntilde" unicode="&#xf1;" horiz-adv-x="661" 
d="M242 513v-66h2q56 83 164 83q99 0 146 -56.5t47 -156.5v-317h-182v250v15.5v18t-0.5 17t-2 18.5t-4.5 17t-7 16t-10.5 12.5t-14.5 11t-19 6.5t-24 3q-95 0 -95 -119v-266h-182v513h182zM214 616h-82l-1 11q0 52 22 89q33 56 89 56q27 0 85.5 -17t77.5 -17q17 0 25 8.5
t15 27.5h85q-5 -62 -38 -110t-92 -48q-26 0 -77.5 18.5t-74.5 18.5q-11 0 -18.5 -6.5t-9.5 -11.5t-6 -19z" />
    <glyph glyph-name="ograve" unicode="&#xf2;" horiz-adv-x="662" 
d="M331 530q130 0 219.5 -74t89.5 -200t-89.5 -199.5t-219.5 -73.5q-129 0 -219 73.5t-90 199.5t89.5 200t219.5 74zM331 372q-54 0 -85.5 -33.5t-31.5 -82.5q0 -50 31.5 -82.5t85.5 -32.5t85.5 32.5t31.5 82.5q0 49 -31.5 82.5t-85.5 33.5zM180 740l111 80l141 -172
l-81 -59z" />
    <glyph glyph-name="oacute" unicode="&#xf3;" horiz-adv-x="662" 
d="M331 530q130 0 219.5 -74t89.5 -200t-89.5 -199.5t-219.5 -73.5q-129 0 -219 73.5t-90 199.5t89.5 200t219.5 74zM331 372q-54 0 -85.5 -33.5t-31.5 -82.5q0 -50 31.5 -82.5t85.5 -32.5t85.5 32.5t31.5 82.5q0 49 -31.5 82.5t-85.5 33.5zM482 740l-171 -151l-81 59
l141 172z" />
    <glyph glyph-name="ocircumflex" unicode="&#xf4;" horiz-adv-x="662" 
d="M331 530q130 0 219.5 -74t89.5 -200t-89.5 -199.5t-219.5 -73.5q-129 0 -219 73.5t-90 199.5t89.5 200t219.5 74zM331 372q-54 0 -85.5 -33.5t-31.5 -82.5q0 -50 31.5 -82.5t85.5 -32.5t85.5 32.5t31.5 82.5q0 49 -31.5 82.5t-85.5 33.5zM111 665l218 164l221 -164
l-77 -84l-144 111l-144 -111z" />
    <glyph glyph-name="otilde" unicode="&#xf5;" horiz-adv-x="662" 
d="M331 530q130 0 219.5 -74t89.5 -200t-89.5 -199.5t-219.5 -73.5q-129 0 -219 73.5t-90 199.5t89.5 200t219.5 74zM331 372q-54 0 -85.5 -33.5t-31.5 -82.5q0 -50 31.5 -82.5t85.5 -32.5t85.5 32.5t31.5 82.5q0 49 -31.5 82.5t-85.5 33.5zM215 616h-82l-1 11q0 52 22 89
q33 56 89 56q27 0 85.5 -17t77.5 -17q17 0 25 8.5t15 27.5h85q-5 -62 -38 -110t-92 -48q-26 0 -77.5 18.5t-74.5 18.5q-11 0 -18.5 -6.5t-9.5 -11.5t-6 -19z" />
    <glyph glyph-name="odieresis" unicode="&#xf6;" horiz-adv-x="662" 
d="M331 530q130 0 219.5 -74t89.5 -200t-89.5 -199.5t-219.5 -73.5q-129 0 -219 73.5t-90 199.5t89.5 200t219.5 74zM331 372q-54 0 -85.5 -33.5t-31.5 -82.5q0 -50 31.5 -82.5t85.5 -32.5t85.5 32.5t31.5 82.5q0 49 -31.5 82.5t-85.5 33.5zM203 800q41 0 69.5 -29t28.5 -69
q0 -41 -28.5 -69.5t-69.5 -28.5t-70 28.5t-29 69.5t29 69.5t70 28.5zM459 800q41 0 69.5 -29t28.5 -69q0 -41 -28.5 -69.5t-69.5 -28.5t-70 28.5t-29 69.5t29 69.5t70 28.5z" />
    <glyph glyph-name="divide" unicode="&#xf7;" 
d="M87 332h512v-150h-512v150zM343 127q30 0 51 -21t21 -51t-21 -51t-51 -21t-51 21t-21 51t21 51t51 21zM343 531q30 0 51 -21t21 -51t-21 -51t-51 -21t-51 21t-21 51t21 51t51 21z" />
    <glyph glyph-name="oslash" unicode="&#xf8;" horiz-adv-x="662" 
d="M221 214l153 151q-21 7 -43 7q-54 0 -85.5 -33.5t-31.5 -82.5q0 -25 7 -42zM441 299l-153 -151q18 -7 43 -7q54 0 85.5 32.5t31.5 82.5q0 23 -7 43zM21 16l66 65q-65 71 -65 175q0 126 89.5 200t219.5 74q94 0 169 -40l71 70l70 -62l-66 -66q65 -73 65 -176
q0 -126 -89.5 -199.5t-219.5 -73.5q-95 0 -169 40l-71 -70z" />
    <glyph glyph-name="ugrave" unicode="&#xf9;" horiz-adv-x="659" 
d="M57 513h182v-274q0 -54 19.5 -82.5t71.5 -28.5t71.5 28.5t19.5 82.5v274h182v-309q0 -221 -273 -221t-273 221v309zM174 740l111 80l141 -172l-81 -59z" />
    <glyph glyph-name="uacute" unicode="&#xfa;" horiz-adv-x="659" 
d="M57 513h182v-274q0 -54 19.5 -82.5t71.5 -28.5t71.5 28.5t19.5 82.5v274h182v-309q0 -221 -273 -221t-273 221v309zM486 740l-171 -151l-81 59l141 172z" />
    <glyph glyph-name="ucircumflex" unicode="&#xfb;" horiz-adv-x="659" 
d="M57 513h182v-274q0 -54 19.5 -82.5t71.5 -28.5t71.5 28.5t19.5 82.5v274h182v-309q0 -221 -273 -221t-273 221v309zM110 665l218 164l221 -164l-77 -84l-144 111l-144 -111z" />
    <glyph glyph-name="udieresis" unicode="&#xfc;" horiz-adv-x="659" 
d="M57 513h182v-274q0 -54 19.5 -82.5t71.5 -28.5t71.5 28.5t19.5 82.5v274h182v-309q0 -221 -273 -221t-273 221v309zM202 800q40 0 69 -29t29 -69q0 -41 -28.5 -69.5t-69.5 -28.5t-70 28.5t-29 69.5t29 69.5t70 28.5zM458 800q40 0 69 -29t29 -69q0 -41 -28.5 -69.5
t-69.5 -28.5t-70 28.5t-29 69.5t29 69.5t70 28.5z" />
    <glyph glyph-name="yacute" unicode="&#xfd;" horiz-adv-x="654" 
d="M233 70l-248 443h210l137 -263l134 263h207l-411 -769h-204zM493 740l-171 -151l-81 59l141 172z" />
    <glyph glyph-name="thorn" unicode="&#xfe;" horiz-adv-x="682" 
d="M236 830v-375h2q24 37 66 56t89 19q112 0 185.5 -81t73.5 -194t-72.5 -192.5t-184.5 -79.5q-102 0 -159 66v-305h-182v1086h182zM347 372q-54 0 -85.5 -33.5t-31.5 -82.5q0 -50 31.5 -82.5t85.5 -32.5t85.5 32.5t31.5 82.5q0 49 -31.5 82.5t-85.5 33.5z" />
    <glyph glyph-name="ydieresis" unicode="&#xff;" horiz-adv-x="654" 
d="M233 70l-248 443h210l137 -263l134 263h207l-411 -769h-204zM214 800q40 0 69 -29t29 -69q0 -41 -28.5 -69.5t-69.5 -28.5t-70 28.5t-29 69.5t29 69.5t70 28.5zM470 800q40 0 69 -29t29 -69q0 -41 -28.5 -69.5t-69.5 -28.5t-70 28.5t-29 69.5t29 69.5t70 28.5z" />
    <glyph glyph-name="dotlessi" unicode="&#x131;" horiz-adv-x="302" 
d="M242 513v-513h-182v513h182z" />
    <glyph glyph-name="Lslash" unicode="&#x141;" horiz-adv-x="533" 
d="M19 233v142l83 53v326h196v-200l113 72v-146l-113 -71v-243h235v-166h-431v285z" />
    <glyph glyph-name="lslash" unicode="&#x142;" horiz-adv-x="366" 
d="M92 0v331l-84 -51v124l84 52v374h182v-266l84 51v-125l-84 -51v-439h-182z" />
    <glyph glyph-name="OE" unicode="&#x152;" horiz-adv-x="1140" 
d="M660 0v83q-99 -108 -240 -108q-106 0 -197 55.5t-144 148t-53 198.5t53 198.5t144 148t197 55.5q146 0 240 -94v69h424v-166h-229v-126h213v-166h-213v-130h229v-166h-424zM441 589q-87 0 -149 -62t-62 -150q0 -87 62 -149.5t149 -62.5t148.5 62.5t61.5 149.5
q0 88 -61 150t-149 62z" />
    <glyph glyph-name="oe" unicode="&#x153;" horiz-adv-x="1022" 
d="M618 331h211q-7 36 -36 58.5t-67 22.5q-41 0 -70.5 -21t-37.5 -60zM330 372q-48 0 -82.5 -34.5t-34.5 -81.5q0 -48 34.5 -81.5t82.5 -33.5t82.5 33.5t34.5 81.5q0 47 -34.5 81.5t-82.5 34.5zM1001 245v-19h-383q0 -114 114 -114q59 0 87 47h175q-20 -85 -97 -133
q-70 -43 -164 -43q-145 0 -208 89q-44 -49 -92 -69t-116 -20q-130 0 -213 72.5t-83 200.5q0 126 83 200t211 74q67 0 116 -17t94 -60q59 77 195 77q133 0 207 -76.5t74 -208.5z" />
    <glyph glyph-name="Scaron" unicode="&#x160;" horiz-adv-x="616" 
d="M556 712l-78 -152q-60 50 -130 50q-31 0 -57.5 -17t-26.5 -46q0 -20 16.5 -36t31 -22t39.5 -14l50 -15q88 -26 137 -73.5t49 -132.5q0 -137 -78 -203q-84 -71 -214 -71q-142 0 -265 86l84 158q89 -78 174 -78q38 0 66.5 19.5t28.5 56.5q0 52 -113 84q-4 1 -6 2
q-54 15 -85 28t-62 36.5t-44 59.5t-13 89q0 114 73 183.5t187 69.5q57 0 121.5 -17t114.5 -45zM88 955l74 85l144 -112l144 112l77 -85l-221 -163z" />
    <glyph glyph-name="scaron" unicode="&#x161;" horiz-adv-x="513" 
d="M460 497l-61 -116q-47 25 -98 25q-20 0 -38.5 -9t-18.5 -26q0 -7 3 -13t9 -10.5t12 -7.5t15.5 -5.5t15 -3.5t15 -2.5t12.5 -2.5q149 -30 149 -152q0 -94 -71.5 -142.5t-170.5 -48.5q-111 0 -207 59l66 127q30 -21 71 -36.5t73 -15.5q21 0 39 10t18 29q0 11 -5.5 19.5
t-18.5 14t-24.5 8.5t-32.5 7.5t-33 7.5q-52 14 -83 43.5t-31 91.5q0 60 34 102.5t83.5 61t108.5 18.5q96 0 169 -33zM37 744l74 85l144 -112l144 112l77 -85l-221 -163z" />
    <glyph glyph-name="Ydieresis" unicode="&#x178;" horiz-adv-x="714" 
d="M259 362l-278 392h235l141 -205l141 205h235l-278 -392v-362h-196v362zM239 1011q41 0 69.5 -28.5t28.5 -69.5t-28.5 -69.5t-69.5 -28.5t-70 28.5t-29 69.5t29 69.5t70 28.5zM495 1011q41 0 69.5 -28.5t28.5 -69.5t-28.5 -69.5t-69.5 -28.5t-70 28.5t-29 69.5t29 69.5
t70 28.5z" />
    <glyph glyph-name="Zcaron" unicode="&#x17d;" horiz-adv-x="707" 
d="M341 166h316v-166h-646l357 588h-296v166h624zM144 955l74 85l144 -112l144 112l77 -85l-221 -163z" />
    <glyph glyph-name="zcaron" unicode="&#x17e;" horiz-adv-x="559" 
d="M312 151h216v-151h-520l241 362h-209v151h512zM60 744l74 85l144 -112l144 112l77 -85l-221 -163z" />
    <glyph glyph-name="florin" unicode="&#x192;" 
d="M471 505h110l-13 -76h-110l-51 -279q-14 -80 -31.5 -134t-53.5 -101q-84 -108 -222 -96l-106 9l30 165q52 -9 71 -9q40 0 63.5 15.5t39.5 52.5q14 36 34 144l42 233h-86l12 76h88l20 108q10 52 22.5 85t39.5 63q62 69 162 69q80 0 130 -34l-29 -157q-41 30 -78 30
q-25 0 -41 -17.5t-21.5 -37t-10.5 -46.5q-1 -5 -1 -8z" />
    <glyph glyph-name="circumflex" unicode="&#x2c6;" horiz-adv-x="590" 
d="M75 665l218 164l221 -164l-77 -84l-144 111l-144 -111z" />
    <glyph glyph-name="caron" unicode="&#x2c7;" horiz-adv-x="590" 
d="M75 744l74 85l144 -112l144 112l77 -85l-221 -163z" />
    <glyph glyph-name="uni02C9" unicode="&#x2c9;" horiz-adv-x="603" 
d="M75 752h452v-107h-452v107z" />
    <glyph glyph-name="breve" unicode="&#x2d8;" horiz-adv-x="539" 
d="M75 784h112q5 -32 27 -49.5t55 -17.5t55.5 17.5t27.5 49.5h111q-4 -80 -57.5 -124.5t-136.5 -44.5t-136.5 44.5t-57.5 124.5z" />
    <glyph glyph-name="dotaccent" unicode="&#x2d9;" horiz-adv-x="402" 
d="M202 800q40 0 69 -29t29 -69q0 -41 -28.5 -69.5t-69.5 -28.5t-70 28.5t-29 69.5t29 69.5t70 28.5z" />
    <glyph glyph-name="ring" unicode="&#x2da;" horiz-adv-x="457" 
d="M227 815q65 0 110 -27.5t45 -87.5q0 -59 -44.5 -87t-107.5 -28q-64 0 -109.5 27t-45.5 87t44 88t108 28zM229 743q-24 0 -41.5 -10.5t-17.5 -32.5t17.5 -32.5t41.5 -10.5q23 0 40.5 10.5t17.5 32.5t-17.5 32.5t-40.5 10.5z" />
    <glyph glyph-name="ogonek" unicode="&#x2db;" horiz-adv-x="350" 
d="M159 0h75v-2q-60 -34 -60 -74q0 -19 13.5 -32.5t32.5 -13.5q22 0 54 19l-22 -92q-31 -19 -80 -19q-37 0 -67 25t-30 61q0 39 23.5 72.5t60.5 55.5z" />
    <glyph glyph-name="tilde" unicode="&#x2dc;" horiz-adv-x="549" 
d="M158 616h-82l-1 11q0 52 22 89q33 56 89 56q27 0 85.5 -17t77.5 -17q17 0 25 8.5t15 27.5h85q-5 -62 -38 -110t-92 -48q-26 0 -77.5 18.5t-74.5 18.5q-11 0 -18.5 -6.5t-9.5 -11.5t-6 -19z" />
    <glyph glyph-name="hungarumlaut" unicode="&#x2dd;" horiz-adv-x="539" 
d="M254 814l-50 -214h-93l14 214h129zM428 814l-50 -214h-93l14 214h129z" />
    <glyph glyph-name="uni03A9" unicode="&#x3a9;" horiz-adv-x="869" 
d="M204 137v4q-61 50 -103.5 126.5t-42.5 172.5q0 147 105.5 252t273.5 105q87 0 159 -31.5t117.5 -82.5t70 -112.5t24.5 -124.5q0 -98 -41.5 -175.5t-106.5 -129.5v-4h165v-137h-339v103q143 87 143 307q1 105 -51 176t-141 71q-88 0 -143.5 -70.5t-55.5 -182.5
q0 -110 40.5 -189t103.5 -112v-103h-340v137h162z" />
    <glyph glyph-name="uni03BC" unicode="&#x3bc;" horiz-adv-x="659" 
d="M57 513h182v-274q0 -54 19.5 -82.5t71.5 -28.5t71.5 28.5t19.5 82.5v274h182v-309q0 -62 -22.5 -107.5t-59.5 -69t-74.5 -34t-76.5 -10.5q-80 0 -131 49v-288h-182v769z" />
    <glyph glyph-name="pi" unicode="&#x3c0;" horiz-adv-x="743" 
d="M715 448h-80v-272q0 -113 15 -176h-173q-20 32 -20 167v281h-148q-3 -101 -23 -236.5t-48 -211.5h-173q28 95 48.5 227.5t21.5 220.5q-80 0 -115 -10l-18 112q49 41 208 41h519z" />
    <glyph glyph-name="endash" unicode="&#x2013;" horiz-adv-x="500" 
d="M0 396h500v-150h-500v150z" />
    <glyph glyph-name="emdash" unicode="&#x2014;" horiz-adv-x="1000" 
d="M130 396h740v-150h-740v150z" />
    <glyph glyph-name="quoteleft" unicode="&#x2018;" horiz-adv-x="372" 
d="M189 423h-170l184 331h116z" />
    <glyph glyph-name="quoteright" unicode="&#x2019;" horiz-adv-x="372" 
d="M183 754h170l-184 -331h-116z" />
    <glyph glyph-name="quotesinglbase" unicode="&#x201a;" horiz-adv-x="338" 
d="M149 191h170l-184 -331h-116z" />
    <glyph glyph-name="quotedblleft" unicode="&#x201c;" horiz-adv-x="628" 
d="M445 423h-170l184 331h116zM189 423h-170l184 331h116z" />
    <glyph glyph-name="quotedblright" unicode="&#x201d;" horiz-adv-x="628" 
d="M183 754h170l-184 -331h-116zM439 754h170l-184 -331h-116z" />
    <glyph glyph-name="quotedblbase" unicode="&#x201e;" horiz-adv-x="594" 
d="M149 191h170l-184 -331h-116zM405 191h170l-184 -331h-116z" />
    <glyph glyph-name="dagger" unicode="&#x2020;" 
d="M260 754h166v-205h177v-144h-177v-585h-166v585h-176v144h176v205z" />
    <glyph glyph-name="daggerdbl" unicode="&#x2021;" 
d="M261 754h166v-185h176v-144h-176v-142h176v-144h-176v-318h-166v318h-177v144h177v142h-177v144h177v185z" />
    <glyph glyph-name="bullet" unicode="&#x2022;" 
d="M344 566q80 0 134 -55t54 -134q0 -78 -54 -133t-134 -55t-134.5 55t-54.5 133q0 79 54.5 134t134.5 55z" />
    <glyph glyph-name="ellipsis" unicode="&#x2026;" horiz-adv-x="1000" 
d="M500 214q49 0 83 -34t34 -83q0 -48 -34 -82.5t-83 -34.5t-83 34.5t-34 82.5q0 49 34 83t83 34zM833 214q49 0 83 -34t34 -83q0 -48 -34 -82.5t-83 -34.5t-83 34.5t-34 82.5q0 49 34 83t83 34zM167 214q49 0 83 -34t34 -83q0 -48 -34 -82.5t-83 -34.5t-83 34.5t-34 82.5
q0 49 34 83t83 34z" />
    <glyph glyph-name="perthousand" unicode="&#x2030;" horiz-adv-x="1460" 
d="M225 764q88 0 147 -48.5t59 -134.5q0 -88 -58 -137t-148 -49t-148 49t-58 137q0 86 59 134.5t147 48.5zM225 664q-35 0 -60 -25t-25 -60t25 -59.5t60 -24.5t60 24.5t25 59.5t-25 60t-60 25zM750 359q88 0 147 -48.5t59 -134.5q0 -88 -58 -137t-148 -49t-148 49t-58 137
q0 86 59 134.5t147 48.5zM750 259q-35 0 -60 -25t-25 -60t25 -59.5t60 -24.5t60 24.5t25 59.5t-25 60t-60 25zM1235 359q88 0 147 -48.5t59 -134.5q0 -88 -58 -137t-148 -49t-148 49t-58 137q0 86 59 134.5t147 48.5zM1235 259q-35 0 -60 -25t-25 -60t25 -59.5t60 -24.5
t60 24.5t25 59.5t-25 60t-60 25zM657 754h98l-438 -754h-98z" />
    <glyph glyph-name="guilsinglleft" unicode="&#x2039;" horiz-adv-x="354" 
d="M172 320l129 -174l-103 -72l-172 246l172 246l100 -69z" />
    <glyph glyph-name="guilsinglright" unicode="&#x203a;" horiz-adv-x="354" 
d="M53 146l129 174l-126 177l100 69l172 -246l-172 -246z" />
    <glyph glyph-name="fraction" unicode="&#x2044;" horiz-adv-x="194" 
d="M267 754h98l-438 -754h-98z" />
    <glyph glyph-name="Euro" unicode="&#x20ac;" 
d="M628 740v-157q-51 51 -158 51q-144 0 -169 -129h286l-38 -102h-261q0 -3 -0.5 -13t-0.5 -15q0 -16 2 -34h236l-38 -102h-183q25 -121 166 -121q105 0 158 49v-157q-61 -39 -187 -39q-279 0 -327 268h-95l38 102h47q-1 9 -1 33q0 20 1 29h-85l38 102h56q53 278 328 278
q63 0 113 -13.5t74 -29.5z" />
    <glyph glyph-name="afii61289" unicode="&#x2113;" horiz-adv-x="643" 
d="M549 214l71 -73q-91 -168 -267 -168q-98 0 -152.5 47t-69.5 127q-1 3 -1 10q-10 -7 -29.5 -21t-29.5 -21l-44 90q10 8 46 34.5t54 41.5v263q0 150 62 226t165 76q90 0 136 -58.5t46 -149.5q0 -95 -60 -187.5t-179 -197.5l1 -41q2 -46 29 -73t69 -27q43 0 83 29.5t70 72.5
zM297 560v-154q57 62 90.5 124.5t33.5 112.5q0 84 -57 84q-67 0 -67 -167z" />
    <glyph glyph-name="trademark" unicode="&#x2122;" horiz-adv-x="940" 
d="M899 754v-404h-88v326h-2l-117 -326h-52l-117 326h-2v-326h-88v404h142l91 -239l91 239h142zM384 754v-78h-123v-326h-97v326h-123v78h343z" />
    <glyph glyph-name="Omega" unicode="&#x2126;" horiz-adv-x="869" 
d="M204 137v4q-61 50 -103.5 126.5t-42.5 172.5q0 147 105.5 252t273.5 105q87 0 159 -31.5t117.5 -82.5t70 -112.5t24.5 -124.5q0 -98 -41.5 -175.5t-106.5 -129.5v-4h165v-137h-339v103q143 87 143 307q1 105 -51 176t-141 71q-88 0 -143.5 -70.5t-55.5 -182.5
q0 -110 40.5 -189t103.5 -112v-103h-340v137h162z" />
    <glyph glyph-name="estimated" unicode="&#x212e;" horiz-adv-x="981" 
d="M942 366h-732q-6 0 -6 -5v-222q0 -13 10 -25q116 -119 277 -119q174 0 291 133h65q-61 -72 -155.5 -114.5t-201.5 -42.5q-187 0 -319.5 119t-132.5 287q0 169 132.5 288t319.5 119t319.5 -119t132.5 -288v-11zM776 395v222q0 17 -11 27q-117 115 -274 115
q-159 0 -276 -119q-11 -11 -11 -27v-218q0 -8 6 -8h561q5 0 5 8z" />
    <glyph glyph-name="partialdiff" unicode="&#x2202;" horiz-adv-x="707" 
d="M122 678l-49 124q95 68 233 68q148 0 247.5 -115.5t99.5 -316.5q0 -210 -95.5 -337t-256.5 -127q-64 0 -116 26t-82.5 67t-46.5 87t-16 91q0 132 74.5 214t188.5 82q65 0 111 -30t65 -61h1q1 8 1 32q0 100 -54.5 174.5t-144.5 74.5q-88 0 -160 -53zM319 114h1
q56 0 95 62.5t49 139.5q-9 30 -42.5 60t-80.5 30q-56 0 -91.5 -49t-35.5 -117q0 -53 29.5 -89.5t75.5 -36.5z" />
    <glyph glyph-name="Delta" unicode="&#x2206;" horiz-adv-x="802" 
d="M28 0v94l270 707h212l262 -705v-96h-744zM214 137h364l-119 304q-7 25 -30.5 95t-30.5 96h-4q-5 -19 -26.5 -83t-30.5 -93z" />
    <glyph glyph-name="product" unicode="&#x220f;" horiz-adv-x="877" 
d="M850 631h-122v-739h-172v739h-236v-739h-172v739h-122v153h824v-153z" />
    <glyph glyph-name="summation" unicode="&#x2211;" horiz-adv-x="679" 
d="M660 -108h-634v105l279 340l-268 330v117h601v-145h-363v-4l228 -273l-255 -312v-4h412v-154z" />
    <glyph glyph-name="minus" unicode="&#x2212;" 
d="M87 332h512v-150h-512v150z" />
    <glyph glyph-name="uni2215" unicode="&#x2215;" horiz-adv-x="194" 
d="M267 754h98l-438 -754h-98z" />
    <glyph glyph-name="uni2219" unicode="&#x2219;" horiz-adv-x="343" 
d="M172 373q49 0 83 -34t34 -83q0 -48 -34 -82.5t-83 -34.5t-83 34.5t-34 82.5q0 49 34 83t83 34z" />
    <glyph glyph-name="radical" unicode="&#x221a;" horiz-adv-x="722" 
d="M742 941l-276 -1099h-137l-178 482l-88 -35l-28 91l218 89l119 -345q5 -19 14 -53t12 -47l2 -1q2 8 5.5 29t7 41t7.5 39l200 809h122z" />
    <glyph glyph-name="infinity" unicode="&#x221e;" horiz-adv-x="907" 
d="M852 324v-1q0 -93 -57 -149.5t-134 -56.5q-114 0 -207 129q-51 -64 -99.5 -96.5t-113.5 -32.5q-76 0 -131.5 56t-55.5 144q0 90 56 147t141 57q62 0 111.5 -31.5t96.5 -93.5q54 61 81 81q58 45 127 44q79 -1 132 -55t53 -142zM252 207h2q41 0 75.5 28t74.5 78
q-24 34 -34.5 47.5t-31.5 34.5t-42 29t-47 8q-46 0 -74.5 -32t-28.5 -84q0 -45 30.5 -77t75.5 -32zM658 432h-2q-14 0 -27 -3.5t-26.5 -12t-22.5 -14t-23 -20.5t-18 -20t-18.5 -22.5t-15.5 -18.5q51 -66 84 -90t74 -24q43 0 69.5 34.5t26.5 74.5q0 50 -28 83t-73 33z" />
    <glyph glyph-name="integral" unicode="&#x222b;" horiz-adv-x="476" 
d="M454 961l-17 -114q-22 9 -43 9q-40 0 -60 -30q-29 -38 -29 -183q0 -90 9 -256t9 -272q0 -146 -40 -223q-25 -47 -69.5 -69.5t-95.5 -22.5q-60 0 -98 19l20 118q29 -11 52 -11q35 0 53 22q31 40 31 167q0 107 -9.5 278t-9.5 267q0 99 17.5 159t56.5 101q51 54 147 54
q46 0 76 -13z" />
    <glyph glyph-name="approxequal" unicode="&#x2248;" horiz-adv-x="654" 
d="M551 523l60 -58q-33 -56 -76 -88t-90 -32q-58 0 -133 45q-23 14 -33.5 19.5t-29.5 12t-37 6.5q-24 0 -46 -13.5t-34 -27t-32 -40.5l-60 57q27 52 76 86t103 34t123 -40q58 -35 80 -40q10 -2 21 -2q31 0 56 20t52 61zM551 300l60 -58q-71 -120 -168 -120q-33 0 -61 10.5
t-70 34.5q-63 38 -99 38q-25 0 -47 -13.5t-33.5 -27t-32.5 -41.5l-60 58q27 52 76 86t103 34q26 0 52 -8t35.5 -13t34.5 -19q4 -2 24 -14.5t27 -16t22 -8t28 -4.5q32 0 55.5 19.5t53.5 62.5z" />
    <glyph glyph-name="notequal" unicode="&#x2260;" horiz-adv-x="654" 
d="M486 587l-43 -97h155v-97h-193l-66 -150h259v-96h-297l-58 -132l-77 32l44 100h-154v96h193l65 150h-258v97h296l57 129z" />
    <glyph glyph-name="lessequal" unicode="&#x2264;" horiz-adv-x="654" 
d="M596 119l-535 255v104l534 254v-110l-436 -195v-2l437 -196v-110zM599 -21h-542v99h542v-99z" />
    <glyph glyph-name="greaterequal" unicode="&#x2265;" horiz-adv-x="654" 
d="M62 732l535 -254v-105l-534 -254v110l436 196v3l-437 194v110zM596 -21h-538v99h538v-99z" />
    <glyph glyph-name="lozenge" unicode="&#x25ca;" horiz-adv-x="722" 
d="M666 391l-240 -448h-136l-234 448l239 449h137zM514 387l-129 256q-17 44 -22 64h-4q-5 -20 -22 -64l-129 -249l130 -260q15 -38 20 -60h5q9 38 20 59z" />
    <hkern u1="T" u2="&#x161;" k="23" />
    <hkern u1="T" u2="&#xfc;" k="40" />
    <hkern u1="T" u2="&#xf6;" k="37" />
    <hkern u1="T" u2="&#xf2;" k="37" />
    <hkern u1="T" u2="&#xeb;" k="37" />
    <hkern u1="T" u2="&#xea;" k="56" />
    <hkern u1="T" u2="&#xe8;" k="56" />
    <hkern u1="T" u2="&#xe5;" k="37" />
    <hkern u1="T" u2="&#xe4;" k="19" />
    <hkern u1="T" u2="&#xe3;" k="37" />
    <hkern u1="T" u2="&#xe2;" k="37" />
    <hkern u1="T" u2="&#xe0;" k="37" />
    <hkern u1="V" u2="&#xf6;" k="37" />
    <hkern u1="V" u2="&#xf4;" k="56" />
    <hkern u1="V" u2="&#xeb;" k="37" />
    <hkern u1="V" u2="&#xea;" k="37" />
    <hkern u1="V" u2="&#xe8;" k="37" />
    <hkern u1="V" u2="&#xe5;" k="37" />
    <hkern u1="V" u2="&#xe4;" k="37" />
    <hkern u1="V" u2="&#xe3;" k="37" />
    <hkern u1="V" u2="&#xe2;" k="37" />
    <hkern u1="V" u2="&#xe0;" k="37" />
    <hkern u1="W" u2="&#xfc;" k="30" />
    <hkern u1="W" u2="&#xf6;" k="30" />
    <hkern u1="W" u2="&#xea;" k="30" />
    <hkern u1="W" u2="&#xe4;" k="28" />
    <hkern u1="Y" u2="&#xfc;" k="56" />
    <hkern u1="Y" u2="&#xf6;" k="90" />
    <hkern u1="&#x2018;" u2="&#x2018;" k="40" />
    <hkern u1="&#x2019;" u2="&#x2019;" k="40" />
    <hkern g1="f,fi,fl"
	g2="quoteright"
	k="-20" />
    <hkern g1="F"
	g2="A,Agrave,Aacute,Acircumflex,Atilde,Adieresis,Aring,AE"
	k="55" />
    <hkern g1="F"
	g2="comma"
	k="129" />
    <hkern g1="F"
	g2="period"
	k="129" />
    <hkern g1="L,Lslash"
	g2="T"
	k="55" />
    <hkern g1="L,Lslash"
	g2="V"
	k="92" />
    <hkern g1="L,Lslash"
	g2="W"
	k="55" />
    <hkern g1="L,Lslash"
	g2="y,yacute,ydieresis"
	k="37" />
    <hkern g1="L,Lslash"
	g2="Y,Yacute,Ydieresis"
	k="92" />
    <hkern g1="L,Lslash"
	g2="quoteright"
	k="74" />
    <hkern g1="P"
	g2="A,Agrave,Aacute,Acircumflex,Atilde,Adieresis,Aring,AE"
	k="74" />
    <hkern g1="P"
	g2="comma"
	k="140" />
    <hkern g1="P"
	g2="period"
	k="129" />
    <hkern g1="r"
	g2="v"
	k="-18" />
    <hkern g1="r"
	g2="w"
	k="-18" />
    <hkern g1="r"
	g2="y,yacute,ydieresis"
	k="-18" />
    <hkern g1="r"
	g2="quoteright"
	k="-40" />
    <hkern g1="r"
	g2="comma"
	k="92" />
    <hkern g1="r"
	g2="period"
	k="92" />
    <hkern g1="r"
	g2="f,germandbls,fi,fl"
	k="-20" />
    <hkern g1="r"
	g2="g"
	k="-18" />
    <hkern g1="r"
	g2="o,ograve,oacute,ocircumflex,otilde,odieresis,oslash,oe"
	k="18" />
    <hkern g1="r"
	g2="q"
	k="18" />
    <hkern g1="r"
	g2="t"
	k="-18" />
    <hkern g1="r"
	g2="z,zcaron"
	k="-20" />
    <hkern g1="R"
	g2="V"
	k="20" />
    <hkern g1="R"
	g2="W"
	k="20" />
    <hkern g1="R"
	g2="Y,Yacute,Ydieresis"
	k="40" />
    <hkern g1="T"
	g2="w"
	k="80" />
    <hkern g1="T"
	g2="y,yacute,ydieresis"
	k="80" />
    <hkern g1="T"
	g2="A,Agrave,Aacute,Acircumflex,Atilde,Adieresis,Aring,AE"
	k="60" />
    <hkern g1="T"
	g2="comma"
	k="92" />
    <hkern g1="T"
	g2="period"
	k="111" />
    <hkern g1="T"
	g2="o,ograve,oacute,ocircumflex,otilde,odieresis,oslash,oe"
	k="74" />
    <hkern g1="T"
	g2="a,agrave,aacute,acircumflex,atilde,adieresis,aring,ae"
	k="74" />
    <hkern g1="T"
	g2="c,ccedilla"
	k="74" />
    <hkern g1="T"
	g2="e,egrave,eacute,ecircumflex,edieresis"
	k="74" />
    <hkern g1="T"
	g2="r"
	k="55" />
    <hkern g1="T"
	g2="s,scaron"
	k="92" />
    <hkern g1="T"
	g2="u,ugrave,uacute,ucircumflex,udieresis"
	k="80" />
    <hkern g1="T"
	g2="colon"
	k="37" />
    <hkern g1="T"
	g2="hyphen"
	k="100" />
    <hkern g1="T"
	g2="semicolon"
	k="68" />
    <hkern g1="v"
	g2="comma"
	k="120" />
    <hkern g1="v"
	g2="period"
	k="74" />
    <hkern g1="V"
	g2="y,yacute,ydieresis"
	k="18" />
    <hkern g1="V"
	g2="A,Agrave,Aacute,Acircumflex,Atilde,Adieresis,Aring,AE"
	k="90" />
    <hkern g1="V"
	g2="comma"
	k="160" />
    <hkern g1="V"
	g2="period"
	k="149" />
    <hkern g1="V"
	g2="o,ograve,oacute,ocircumflex,otilde,odieresis,oslash,oe"
	k="74" />
    <hkern g1="V"
	g2="a,agrave,aacute,acircumflex,atilde,adieresis,aring,ae"
	k="74" />
    <hkern g1="V"
	g2="e,egrave,eacute,ecircumflex,edieresis"
	k="74" />
    <hkern g1="V"
	g2="r"
	k="37" />
    <hkern g1="V"
	g2="u,ugrave,uacute,ucircumflex,udieresis"
	k="37" />
    <hkern g1="V"
	g2="colon"
	k="55" />
    <hkern g1="V"
	g2="hyphen"
	k="55" />
    <hkern g1="V"
	g2="semicolon"
	k="92" />
    <hkern g1="V"
	g2="i,igrave,iacute,icircumflex,idieresis"
	k="-20" />
    <hkern g1="w"
	g2="comma"
	k="140" />
    <hkern g1="w"
	g2="period"
	k="92" />
    <hkern g1="W"
	g2="A,Agrave,Aacute,Acircumflex,Atilde,Adieresis,Aring,AE"
	k="80" />
    <hkern g1="W"
	g2="comma"
	k="140" />
    <hkern g1="W"
	g2="period"
	k="92" />
    <hkern g1="W"
	g2="o,ograve,oacute,ocircumflex,otilde,odieresis,oslash,oe"
	k="40" />
    <hkern g1="W"
	g2="a,agrave,aacute,acircumflex,atilde,adieresis,aring,ae"
	k="37" />
    <hkern g1="W"
	g2="e,egrave,eacute,ecircumflex,edieresis"
	k="40" />
    <hkern g1="W"
	g2="r"
	k="40" />
    <hkern g1="W"
	g2="u,ugrave,uacute,ucircumflex,udieresis"
	k="40" />
    <hkern g1="W"
	g2="colon"
	k="18" />
    <hkern g1="W"
	g2="hyphen"
	k="37" />
    <hkern g1="W"
	g2="semicolon"
	k="60" />
    <hkern g1="y,yacute,ydieresis"
	g2="comma"
	k="120" />
    <hkern g1="y,yacute,ydieresis"
	g2="period"
	k="92" />
    <hkern g1="Y,Yacute,Ydieresis"
	g2="v"
	k="55" />
    <hkern g1="Y,Yacute,Ydieresis"
	g2="A,Agrave,Aacute,Acircumflex,Atilde,Adieresis,Aring,AE"
	k="120" />
    <hkern g1="Y,Yacute,Ydieresis"
	g2="comma"
	k="120" />
    <hkern g1="Y,Yacute,Ydieresis"
	g2="period"
	k="120" />
    <hkern g1="Y,Yacute,Ydieresis"
	g2="o,ograve,oacute,ocircumflex,otilde,odieresis,oslash,oe"
	k="120" />
    <hkern g1="Y,Yacute,Ydieresis"
	g2="q"
	k="92" />
    <hkern g1="Y,Yacute,Ydieresis"
	g2="a,agrave,aacute,acircumflex,atilde,adieresis,aring,ae"
	k="92" />
    <hkern g1="Y,Yacute,Ydieresis"
	g2="e,egrave,eacute,ecircumflex,edieresis"
	k="92" />
    <hkern g1="Y,Yacute,Ydieresis"
	g2="u,ugrave,uacute,ucircumflex,udieresis"
	k="74" />
    <hkern g1="Y,Yacute,Ydieresis"
	g2="colon"
	k="74" />
    <hkern g1="Y,Yacute,Ydieresis"
	g2="hyphen"
	k="92" />
    <hkern g1="Y,Yacute,Ydieresis"
	g2="semicolon"
	k="120" />
    <hkern g1="Y,Yacute,Ydieresis"
	g2="i,igrave,iacute,icircumflex,idieresis"
	k="-20" />
    <hkern g1="Y,Yacute,Ydieresis"
	g2="p"
	k="74" />
    <hkern g1="quoteright"
	g2="t"
	k="40" />
    <hkern g1="quoteright"
	g2="s,scaron"
	k="160" />
  </font>
</defs></svg>
